arbiter/simulation/qsim/arbiter.msim.vcd
$comment
	File created using the following command:
		vcd file arbiter.msim.vcd -direction
$end
$date
	Mon Aug 29 23:22:00 2016
$end
$version
	ModelSim Version 10.1d
$end
$timescale
	1ps
$end
$scope module arbiter_vlg_vec_tst $end
$var reg 1 ! clk $end
$var reg 3 " r [2:0] $end
$var reg 1 # rst $end
$var wire 1 $ g [2] $end
$var wire 1 % g [1] $end
$var wire 1 & g [0] $end
$var wire 1 ' sampler $end
$scope module i1 $end
$var wire 1 ( gnd $end
$var wire 1 ) vcc $end
$var wire 1 * unknown $end
$var tri1 1 + devclrn $end
$var tri1 1 , devpor $end
$var tri1 1 - devoe $end
$var wire 1 . r[0]~input_o $end
$var wire 1 / g[0]~output_o $end
$var wire 1 0 g[1]~output_o $end
$var wire 1 1 g[2]~output_o $end
$var wire 1 2 clk~input_o $end
$var wire 1 3 clk~inputclkctrl_outclk $end
$var wire 1 4 r[2]~input_o $end
$var wire 1 5 r[1]~input_o $end
$var wire 1 6 prev_state.idle~0_combout $end
$var wire 1 7 rst~input_o $end
$var wire 1 8 rst~inputclkctrl_outclk $end
$var wire 1 9 prev_state.idle~q $end
$var wire 1 : process_1~0_combout $end
$var wire 1 ; prev_state.p3~0_combout $end
$var wire 1 < prev_state.p3~q $end
$upscope $end
$upscope $end
$enddefinitions $end
#0
$dumpvars
0!
b0 "
0#
x&
0%
0$
x'
0(
1)
x*
1+
1,
1-
0.
x/
00
01
02
x3
04
05
x6
07
x8
09
x:
x;
0<
$end
#145
08
03
#2663
0/
0&
#3143
06
0:
#3466
0;
#10000
1!
0'
#10775
12
#10938
13
#20000
0!
1'
#20936
02
#21081
03
#30000
1!
0'
#30775
12
#30938
13
#40000
1#
0!
1'
#40765
17
#40928
18
#40936
02
#41081
03
#50000
1!
0'
#50775
12
#50938
13
#60000
0!
1'
#60936
02
#61081
03
#70000
1!
0'
#70775
12
#70938
13
#80000
0!
1'
#80936
02
#81081
03
#90000
1!
0'
#90775
12
#90938
13
#100000
0!
1'
#100936
02
#101081
03
#110000
1!
0'
#110775
12
#110938
13
#120000
b100 "
b110 "
b111 "
0!
1'
#120725
14
15
#120775
1.
#120936
02
#121081
03
#130000
1!
0'
#130775
12
#130938
13
#140000
0!
1'
#140936
02
#141081
03
#150000
1!
0'
#150775
12
#150938
13
#160000
0!
1'
#160936
02
#161081
03
#170000
1!
0'
#170775
12
#170938
13
#180000
0!
1'
#180936
02
#181081
03
#190000
1!
0'
#190775
12
#190938
13
#200000
0!
1'
#200936
02
#201081
03
#210000
b11 "
1!
0'
#210775
12
#210886
04
#210938
13
#220000
0!
1'
#220936
02
#221081
03
#230000
1!
0'
#230775
12
#230938
13
#240000
0!
1'
#240936
02
#241081
03
#250000
1!
0'
#250775
12
#250938
13
#260000
0!
1'
#260936
02
#261081
03
#270000
1!
0'
#270775
12
#270938
13
#280000
0!
1'
#280936
02
#281081
03
#290000
1!
0'
#290775
12
#290938
13
#300000
b1 "
0!
1'
#300886
05
#300936
02
#301081
03
#303851
1:
#304024
16
#304157
1;
#310000
1!
0'
#310775
12
#310938
13
#312626
19
1<
#312963
0:
#315255
1/
1&
#320000
0!
1'
#320936
02
#321081
03
#330000
1!
0'
#330775
12
#330938
13
#340000
0!
1'
#340936
02
#341081
03
#350000
1!
0'
#350775
12
#350938
13
#360000
0!
1'
#360936
02
#361081
03
#370000
1!
0'
#370775
12
#370938
13
#380000
b101 "
0!
1'
#380725
14
#380936
02
#381081
03
#390000
1!
0'
#390775
12
#390938
13
#400000
0!
1'
#400936
02
#401081
03
#410000
1!
0'
#410775
12
#410938
13
#420000
0!
1'
#420936
02
#421081
03
#430000
1!
0'
#430775
12
#430938
13
#440000
0!
1'
#440936
02
#441081
03
#450000
b100 "
b0 "
1!
0'
#450775
12
#450886
04
#450936
0.
#450938
13
#460000
0!
1'
#460936
02
#461081
03
#470000
1!
0'
#470775
12
#470938
13
#480000
0!
1'
#480936
02
#481081
03
#490000
1!
0'
#490775
12
#490938
13
#500000
0!
1'
#500936
02
#501081
03
#510000
1!
0'
#510775
12
#510938
13
#520000
0!
1'
#520936
02
#521081
03
#530000
1!
0'
#530775
12
#530938
13
#540000
0!
1'
#540936
02
#541081
03
#550000
1!
0'
#550775
12
#550938
13
#560000
0!
1'
#560936
02
#561081
03
#570000
1!
0'
#570775
12
#570938
13
#580000
0!
1'
#580936
02
#581081
03
#590000
1!
0'
#590775
12
#590938
13
#600000
0!
1'
#600936
02
#601081
03
#610000
1!
0'
#610775
12
#610938
13
#620000
0!
1'
#620936
02
#621081
03
#630000
1!
0'
#630775
12
#630938
13
#640000
0!
1'
#640936
02
#641081
03
#650000
1!
0'
#650775
12
#650938
13
#660000
0!
1'
#660936
02
#661081
03
#670000
1!
0'
#670775
12
#670938
13
#680000
0!
1'
#680936
02
#681081
03
#690000
1!
0'
#690775
12
#690938
13
#700000
0!
1'
#700936
02
#701081
03
#710000
1!
0'
#710775
12
#710938
13
#720000
0!
1'
#720936
02
#721081
03
#730000
1!
0'
#730775
12
#730938
13
#740000
0!
1'
#740936
02
#741081
03
#750000
1!
0'
#750775
12
#750938
13
#760000
0!
1'
#760936
02
#761081
03
#770000
1!
0'
#770775
12
#770938
13
#780000
0!
1'
#780936
02
#781081
03
#790000
1!
0'
#790775
12
#790938
13
#800000
0!
1'
#800936
02
#801081
03
#810000
1!
0'
#810775
12
#810938
13
#820000
0!
1'
#820936
02
#821081
03
#830000
1!
0'
#830775
12
#830938
13
#840000
0!
1'
#840936
02
#841081
03
#850000
1!
0'
#850775
12
#850938
13
#860000
0!
1'
#860936
02
#861081
03
#870000
1!
0'
#870775
12
#870938
13
#880000
0!
1'
#880936
02
#881081
03
#890000
1!
0'
#890775
12
#890938
13
#900000
0!
1'
#900936
02
#901081
03
#910000
1!
0'
#910775
12
#910938
13
#920000
0!
1'
#920936
02
#921081
03
#930000
1!
0'
#930775
12
#930938
13
#940000
0!
1'
#940936
02
#941081
03
#950000
1!
0'
#950775
12
#950938
13
#960000
0!
1'
#960936
02
#961081
03
#970000
1!
0'
#970775
12
#970938
13
#980000
0!
1'
#980936
02
#981081
03
#990000
1!
0'
#990775
12
