multiple_detector/simulation/qsim/multiple_detector.msim.vcd
$comment
	File created using the following command:
		vcd file multiple_detector.msim.vcd -direction
$end
$date
	Wed Jul 06 01:10:33 2016
$end
$version
	ModelSim Version 10.1d
$end
$timescale
	1ps
$end
$scope module multiple_detector_vlg_vec_tst $end
$var reg 5 ! a [4:0] $end
$var reg 5 " b [4:0] $end
$var wire 1 # invalid_input $end
$var wire 1 $ multiple $end
$var wire 1 % sampler $end
$scope module i1 $end
$var wire 1 & gnd $end
$var wire 1 ' vcc $end
$var wire 1 ( unknown $end
$var tri1 1 ) devclrn $end
$var tri1 1 * devpor $end
$var tri1 1 + devoe $end
$var wire 1 , Mod0|auto_generated|divider|divider|add_sub_3_result_int[1]~2_combout $end
$var wire 1 - Mod0|auto_generated|divider|divider|add_sub_3_result_int[2]~4_combout $end
$var wire 1 . Mod0|auto_generated|divider|divider|add_sub_4_result_int[2]~4_combout $end
$var wire 1 / Mod0|auto_generated|divider|divider|add_sub_4_result_int[3]~6_combout $end
$var wire 1 0 Mod0|auto_generated|divider|divider|add_sub_4_result_int[4]~8_combout $end
$var wire 1 1 Mod0|auto_generated|divider|divider|StageOut[5]~2_combout $end
$var wire 1 2 Mod0|auto_generated|divider|divider|StageOut[5]~3_combout $end
$var wire 1 3 Mod0|auto_generated|divider|divider|StageOut[16]~7_combout $end
$var wire 1 4 Equal1~0_combout $end
$var wire 1 5 a[2]~input_o $end
$var wire 1 6 a[4]~input_o $end
$var wire 1 7 a[1]~input_o $end
$var wire 1 8 multiple~output_o $end
$var wire 1 9 invalid_input~output_o $end
$var wire 1 : b[1]~input_o $end
$var wire 1 ; b[0]~input_o $end
$var wire 1 < Mod0|auto_generated|divider|divider|add_sub_2_result_int[0]~1 $end
$var wire 1 = Mod0|auto_generated|divider|divider|add_sub_2_result_int[1]~2_combout $end
$var wire 1 > b[3]~input_o $end
$var wire 1 ? b[4]~input_o $end
$var wire 1 @ a[3]~input_o $end
$var wire 1 A Mod0|auto_generated|divider|divider|StageOut[6]~0_combout $end
$var wire 1 B Equal0~0_combout $end
$var wire 1 C Mod0|auto_generated|divider|divider|StageOut[6]~1_combout $end
$var wire 1 D Mod0|auto_generated|divider|divider|add_sub_2_result_int[1]~3 $end
$var wire 1 E Mod0|auto_generated|divider|divider|add_sub_2_result_int[2]~5 $end
$var wire 1 F Mod0|auto_generated|divider|divider|add_sub_2_result_int[3]~6_combout $end
$var wire 1 G Mod0|auto_generated|divider|divider|StageOut[11]~6_combout $end
$var wire 1 H Mod0|auto_generated|divider|divider|add_sub_2_result_int[0]~0_combout $end
$var wire 1 I Mod0|auto_generated|divider|divider|StageOut[10]~4_combout $end
$var wire 1 J Mod0|auto_generated|divider|divider|add_sub_3_result_int[0]~1 $end
$var wire 1 K Mod0|auto_generated|divider|divider|add_sub_3_result_int[1]~3 $end
$var wire 1 L Mod0|auto_generated|divider|divider|add_sub_3_result_int[2]~5 $end
$var wire 1 M Mod0|auto_generated|divider|divider|add_sub_3_result_int[3]~7 $end
$var wire 1 N Mod0|auto_generated|divider|divider|add_sub_3_result_int[4]~8_combout $end
$var wire 1 O Mod0|auto_generated|divider|divider|StageOut[17]~9_combout $end
$var wire 1 P b[2]~input_o $end
$var wire 1 Q Mod0|auto_generated|divider|divider|add_sub_4_result_int[0]~1 $end
$var wire 1 R Mod0|auto_generated|divider|divider|add_sub_4_result_int[1]~3 $end
$var wire 1 S Mod0|auto_generated|divider|divider|add_sub_4_result_int[2]~5 $end
$var wire 1 T Mod0|auto_generated|divider|divider|add_sub_4_result_int[3]~7 $end
$var wire 1 U Mod0|auto_generated|divider|divider|add_sub_4_result_int[4]~9 $end
$var wire 1 V Mod0|auto_generated|divider|divider|add_sub_4_result_int[5]~10_combout $end
$var wire 1 W a[0]~input_o $end
$var wire 1 X Mod0|auto_generated|divider|divider|add_sub_3_result_int[0]~0_combout $end
$var wire 1 Y Mod0|auto_generated|divider|divider|StageOut[15]~8_combout $end
$var wire 1 Z Equal1~2_combout $end
$var wire 1 [ Mod0|auto_generated|divider|divider|add_sub_3_result_int[3]~6_combout $end
$var wire 1 \ Mod0|auto_generated|divider|divider|add_sub_2_result_int[2]~4_combout $end
$var wire 1 ] Mod0|auto_generated|divider|divider|StageOut[12]~5_combout $end
$var wire 1 ^ Mod0|auto_generated|divider|divider|StageOut[18]~10_combout $end
$var wire 1 _ Mod0|auto_generated|divider|divider|add_sub_4_result_int[1]~2_combout $end
$var wire 1 ` Mod0|auto_generated|divider|divider|add_sub_4_result_int[0]~0_combout $end
$var wire 1 a Equal1~1_combout $end
$var wire 1 b Equal1~3_combout $end
$var wire 1 c Equal0~1_combout $end
$var wire 1 d Mod0|auto_generated|divider|divider|selnose [29] $end
$var wire 1 e Mod0|auto_generated|divider|divider|selnose [28] $end
$var wire 1 f Mod0|auto_generated|divider|divider|selnose [27] $end
$var wire 1 g Mod0|auto_generated|divider|divider|selnose [26] $end
$var wire 1 h Mod0|auto_generated|divider|divider|selnose [25] $end
$var wire 1 i Mod0|auto_generated|divider|divider|selnose [24] $end
$var wire 1 j Mod0|auto_generated|divider|divider|selnose [23] $end
$var wire 1 k Mod0|auto_generated|divider|divider|selnose [22] $end
$var wire 1 l Mod0|auto_generated|divider|divider|selnose [21] $end
$var wire 1 m Mod0|auto_generated|divider|divider|selnose [20] $end
$var wire 1 n Mod0|auto_generated|divider|divider|selnose [19] $end
$var wire 1 o Mod0|auto_generated|divider|divider|selnose [18] $end
$var wire 1 p Mod0|auto_generated|divider|divider|selnose [17] $end
$var wire 1 q Mod0|auto_generated|divider|divider|selnose [16] $end
$var wire 1 r Mod0|auto_generated|divider|divider|selnose [15] $end
$var wire 1 s Mod0|auto_generated|divider|divider|selnose [14] $end
$var wire 1 t Mod0|auto_generated|divider|divider|selnose [13] $end
$var wire 1 u Mod0|auto_generated|divider|divider|selnose [12] $end
$var wire 1 v Mod0|auto_generated|divider|divider|selnose [11] $end
$var wire 1 w Mod0|auto_generated|divider|divider|selnose [10] $end
$var wire 1 x Mod0|auto_generated|divider|divider|selnose [9] $end
$var wire 1 y Mod0|auto_generated|divider|divider|selnose [8] $end
$var wire 1 z Mod0|auto_generated|divider|divider|selnose [7] $end
$var wire 1 { Mod0|auto_generated|divider|divider|selnose [6] $end
$var wire 1 | Mod0|auto_generated|divider|divider|selnose [5] $end
$var wire 1 } Mod0|auto_generated|divider|divider|selnose [4] $end
$var wire 1 ~ Mod0|auto_generated|divider|divider|selnose [3] $end
$var wire 1 !! Mod0|auto_generated|divider|divider|selnose [2] $end
$var wire 1 "! Mod0|auto_generated|divider|divider|selnose [1] $end
$var wire 1 #! Mod0|auto_generated|divider|divider|selnose [0] $end
$upscope $end
$upscope $end
$enddefinitions $end
#0
$dumpvars
b0 !
b0 "
x#
x$
x%
0&
1'
x(
1)
1*
1+
x,
x-
x.
x/
x0
x1
x2
x3
x4
05
06
07
x8
x9
0:
0;
x<
x=
0>
0?
0@
xA
xB
xC
xD
xE
xF
xG
xH
xI
xJ
xK
xL
xM
xN
xO
0P
xQ
xR
xS
xT
xU
xV
0W
xX
xY
xZ
x[
x\
x]
x^
x_
x`
xa
xb
xc
z#!
z"!
z!!
z~
z}
z|
z{
zz
zy
zx
zw
zv
xu
zt
zs
zr
zq
zp
zo
zn
zm
zl
zk
zj
zi
zh
zg
zf
ze
zd
$end
#3171
0C
#3188
1A
#3305
1B
#3398
02
#3434
0H
#3438
11
#3468
0`
#3509
1J
#3512
1<
#3546
1Q
#3567
0K
#3570
0D
#3604
0R
#3619
1c
#3625
1L
#3628
1E
#3662
1S
#3683
0M
#3720
0T
#3778
1U
#3780
0X
#4048
0I
#4065
0F
#4120
0N
#4198
0\
#4215
0V
#4224
0Y
#4388
0u
#4424
0=
#4649
0]
#4676
0,
#4819
0Z
#5037
0G
#5277
0[
#5286
0_
#5292
03
#5661
0-
#5869
0^
#6278
0O
#6326
0.
#6505
19
1#
#6657
00
#7297
0/
#7630
14
#8190
1a
#8497
1b
#11550
18
1$
#40000
b1 !
0%
#40725
1W
#43875
1`
#44169
0a
#44492
0b
#47551
08
0$
#80000
b11 !
b10 !
1%
#80725
17
#80886
0W
#84176
1X
#84346
0`
#84614
1Y
#84676
1a
#84983
1b
#85646
1_
#86061
0a
#86384
0b
#120000
b1 "
b11 !
0%
#120725
1;
1W
#123653
0A
#123842
0<
#123874
1H
#123891
0X
#123896
0c
#123900
1D
#123940
01
#123958
0E
#124297
1=
#124335
0Y
#124355
1\
#124413
1F
#124433
1I
#124720
1u
#124773
1]
#124856
1G
#125010
1,
#125151
0G
0I
#125307
0]
#125341
1[
#125397
0_
#125568
13
#125779
0,
#125845
1a
#125899
1^
#125935
0[
#126152
1b
#126395
03
#126527
0^
#126545
1.
#126635
10
#126781
09
0#
#127116
04
#127315
00
#127429
0.
#127735
0a
#128029
14
#128058
0b
#128589
1a
#128896
1b
#129205
18
1$
#160000
b1 !
b0 !
1%
#160886
07
0W
#164294
0Q
#164318
1`
#164352
1R
#164410
0S
#164468
1T
#164526
0U
#164612
0a
#164614
0J
#164638
1X
#164672
1K
#164730
0L
#164749
1_
#164788
1M
#164807
1.
#164865
1/
#164923
10
#164935
0b
#164981
1V
#165069
1,
#165076
1Y
#165127
1-
#165185
1[
#165243
1N
#165378
04
#165547
1Z
#165821
0Y
#165831
0Z
#166067
0R
#166120
0_
#166125
1S
#166183
0T
#166241
1U
#166504
0.
#166562
0/
#166599
1Z
#166620
00
#166678
0V
#166871
1_
#166951
1R
#167009
0S
#167067
1T
#167125
0U
#167156
1b
#167280
14
#167282
0Z
#167406
1.
#167464
1/
#167522
10
#167580
1V
#167873
0b
#167977
04
#167994
08
0$
#168146
1Z
#168703
1b
#171756
18
1$
#200000
b1000 !
b1100 !
b1110 !
b1111 !
0%
#200725
17
1W
#200735
1@
15
#203617
1I
#203642
0H
#203711
1<
#203744
0Z
#203769
0D
#203827
1E
#203903
0`
#203972
1Q
#204030
0R
#204035
1Y
#204088
1S
#204146
0T
#204147
0K
#204148
0=
#204169
13
#204202
0,
#204204
1U
0X
#204205
1L
#204206
0\
#204263
0M
#204264
0F
#204273
1J
#204335
0b
#204409
0_
#204467
0.
#204525
0/
#204583
00
#204584
0-
#204587
0u
#204641
0V
#204642
0[
#204700
0N
#204728
1,
#205059
0I
#205067
1_
#205146
1.
#205243
14
#205298
0Y
#205687
0,
#205717
04
#206303
03
#206360
0_
#207337
0.
#207394
08
0$
#207937
14
#208497
1a
#208804
1b
#211857
18
1$
#240000
b11 "
b10 "
b111 !
b11 !
b1 !
1%
#240725
1:
#240886
0;
07
#240896
0@
05
#243648
12
#243869
1=
#243881
1,
#243898
1_
#243971
1D
#243976
1K
#244000
1R
#244029
0E
#244034
0L
#244058
0S
#244092
1M
#244116
1T
#244174
0U
#244294
02
#244299
1X
#244313
0a
#244335
11
#244336
1`
#244426
1\
#244428
1G
#244431
1-
#244439
13
#244455
1.
#244484
1F
#244489
1[
#244513
1/
#244547
1N
#244571
10
#244593
0D
#244629
1V
#244636
0b
#244646
0=
#244651
1E
#244666
0X
#244737
1Y
#244791
1u
#244844
1]
#244879
03
#244989
1O
#245008
0-
#245026
04
#245030
0\
#245085
1L
#245088
0F
#245125
0Y
#245259
0G
#245268
1^
#245308
1=
#245371
0M
#245378
0]
#245388
1D
#245411
0u
#245446
0E
#245808
0N
#245832
0L
#245839
0^
#245843
1\
#245855
0O
#245858
1-
#245884
1G
#245890
1M
#245901
1F
#245919
0T
#245972
0/
#246099
1U
#246181
1^
#246184
13
#246208
1u
#246261
1]
#246345
1N
#246416
1O
#246464
0-
#246536
0V
#246541
1L
#246639
0G
#246677
03
#246788
0M
#246795
0]
#247212
0L
#247225
0N
#247235
0O
#247238
1-
#247256
0^
#247270
1M
#247598
1^
#247601
13
1O
#247695
08
0$
#247725
1N
#248057
03
0^
#248058
0O
#248845
00
#249065
1/
#249145
1T
#249203
0U
#249600
10
#249658
1V
#280000
b0 !
b10 !
0%
#280725
17
#280886
0W
#284035
1Y
#284176
1X
#284180
1Z
#284346
0`
#284737
1b
#284790
0Z
#285026
0R
#285079
0_
#285084
1S
#285142
0T
#285200
1U
#285381
0b
#285463
0.
#285521
0/
#285579
00
#285637
0V
#286239
14
#286799
1a
#287106
1b
#290159
18
1$
#320000
b11 !
1%
#320725
1W
#323875
1`
#324169
0a
#324492
0b
#327551
08
0$
#360000
b111 !
b101 !
b100 !
0%
#360735
15
#360886
07
0W
#363614
1H
#363617
1I
#364147
0K
#364169
13
#364202
0,
#364205
1L
#364263
0M
#364346
0`
#364472
0Y
#364584
0-
#364642
0[
#364666
0X
#364676
1a
#364700
0N
#364983
1b
#365066
03
#365146
1.
#365522
1_
#365602
1R
#365717
04
#365937
0a
#366048
0S
#366106
1T
#366164
0U
#366260
0b
#366503
1/
#366561
10
#366619
1V
#367185
1Z
#367742
1b
#370795
18
1$
#400000
b101 !
1%
#400725
1W
#403744
0Z
#403875
1`
#404335
0b
#407394
08
0$
#440000
b111 !
b110 !
0%
#440725
17
#440886
0W
#444176
1X
#444180
1Z
#444346
0`
#444614
1Y
#444737
1b
#445369
0Z
#445605
0R
#445658
0_
#445663
1S
#445721
0T
#445779
1U
#445960
0b
#446042
0.
#446100
0/
#446158
00
#446216
0V
#446818
14
#447378
1a
#447685
1b
#450738
18
1$
#480000
b111 !
1%
#480725
1W
#483875
1`
#484169
0a
#484492
0b
#487551
08
0$
#520000
b1111 !
b1011 !
b1001 !
b1000 !
0%
#520735
1@
#520886
07
0W
#520896
05
#523877
12
#524040
0I
#524057
0H
#524346
0`
#524660
1,
#524666
0X
#524676
1a
#524741
1K
#524799
0L
#524822
0D
#524850
1G
#524857
1M
#524875
0=
#524880
1E
#524983
1b
#525110
0Y
#525218
13
#525254
1[
#525259
0\
#525312
1N
#525317
0F
#525507
1L
#525565
0M
#525640
0u
#525644
03
#525655
1O
#525944
0[
#526002
0N
#526112
0G
#526160
1_
#526240
1R
#526298
0S
#526368
0O
#526378
13
#526575
0a
#526685
0L
#526695
1.
#526711
1-
#526743
1M
#526898
0b
#527140
1[
#527198
1N
#527266
04
#527269
1O
#527375
1/
#527381
0.
#527450
1S
#527530
03
#527531
0O
#527887
0/
#528220
14
#528512
0S
#528538
1.
#528570
1T
#528628
0U
#528967
1/
#529025
10
#529083
1V
#529109
04
#529649
1Z
#530206
1b
#533259
18
1$
#560000
b1001 !
1%
#560725
1W
#563744
0Z
#563875
1`
#564335
0b
#567394
08
0$
#600000
b1011 !
b1010 !
0%
#600725
17
#600886
0W
#604035
1Y
#604176
1X
#604180
1Z
#604346
0`
#604737
1b
#604790
0Z
#605026
0R
#605079
0_
#605084
1S
#605142
0T
#605200
1U
#605381
0b
#605463
0.
#605521
0/
#605579
00
#605637
0V
#606239
14
#606799
1a
#607106
1b
#610159
18
1$
#640000
b1011 !
1%
#640725
1W
#643875
1`
#644169
0a
#644492
0b
#647551
08
0$
#680000
b1111 !
b1101 !
b1100 !
0%
#680735
15
#680886
07
0W
#683614
1H
#684173
1I
#684346
0`
#684472
0Y
#684666
0X
#684676
1a
#684703
0K
#684725
13
#684758
0,
#684761
1L
#684819
0M
#684983
1b
#685140
0-
#685198
0[
#685256
0N
#685522
1_
#685602
1R
#685622
03
#685937
0a
#686260
0b
#686604
0S
#686630
1.
#686662
1T
#686720
0U
#687059
1/
#687117
10
#687175
1V
#687201
04
#687741
1Z
#688298
1b
#691351
18
1$
#720000
b1101 !
1%
#720725
1W
#723744
0Z
#723875
1`
#724335
0b
#727394
08
0$
#760000
b1111 !
b1110 !
0%
#760725
17
#760886
0W
#764176
1X
#764180
1Z
#764346
0`
#764614
1Y
#764737
1b
#765369
0Z
#765605
0R
#765658
0_
#765663
1S
#765721
0T
#765779
1U
#765960
0b
#766042
0.
#766100
0/
#766158
00
#766216
0V
#766818
14
#767378
1a
#767685
1b
#770738
18
1$
#800000
b1111 !
1%
#800725
1W
#803875
1`
#804169
0a
#804492
0b
#807551
08
0$
#840000
b11111 !
b10111 !
b10011 !
b10001 !
b10000 !
0%
#840775
16
#840886
07
0W
#840896
0@
05
#844057
0H
#844294
02
#844346
0`
#844666
0X
#844671
0I
#844676
1a
#844983
1b
#845110
0Y
#845291
1,
#845308
1=
#845372
1K
#845388
1D
#845430
0L
#845446
0E
#845488
1M
#845827
1-
#845843
1\
#845849
13
#845867
1G
#845885
1[
#845901
1F
#845943
1N
#846160
1_
#846208
1u
#846240
1R
#846261
1]
#846275
03
#846298
0S
#846356
1T
#846385
1O
#846414
0U
#846447
0-
#846524
1L
#846575
0a
#846639
0G
#846685
1^
#846695
1.
#846753
1/
#846788
0M
#846795
0]
#846811
10
#846869
1V
#846898
0b
#847212
0L
#847225
0N
#847235
0O
#847238
1-
#847256
0^
#847266
04
#847270
1M
#847315
0T
#847368
0/
#847435
1Z
#847516
1U
#847598
1^
#847601
13
1O
#847725
1N
#847953
0V
#848057
03
0^
#848058
0O
#848557
0Z
#848845
00
#849065
1/
#849145
1T
#849203
0U
#849600
10
#849658
1V
#850224
1Z
#850781
1b
#853834
18
1$
#880000
b110 "
b100 "
b101 "
b0 !
b1 !
1%
#880725
1P
1;
1W
#880886
0:
#880936
06
#883631
0B
#883639
0.
#883663
1A
#883744
0Z
#883841
0J
#883842
0<
#883873
1X
#883874
1H
#883877
0-
#883878
0\
#884131
0A
#884317
0R
#884335
0b
#884368
0_
#884772
1.
#887394
08
0$
#920000
b11 !
b10 !
0%
#920725
17
#920886
0W
#924035
1Y
#924180
1Z
#924204
0X
#924273
1J
#924294
0Q
#924318
1`
#924331
0K
#924352
1R
#924710
0,
#924737
1b
#924786
1-
#924789
0.
#924790
0Z
#925026
0R
#925381
0b
#925481
1.
#960000
b11 !
1%
#960725
1W
#963903
0`
#963972
1Q
#964427
1_
#1000000
b111 !
b101 !
b100 !
0%
#1000735
15
#1000886
07
0W
#1003617
1I
#1003642
0H
#1003711
1<
#1003769
0D
#1004148
0=
#1004169
13
#1004194
1,
#1004224
1\
#1004294
0Q
#1004318
1`
#1004472
0Y
#1004614
0J
#1004638
1X
#1004731
0_
#1005051
0,
#1005172
0.
#1005241
1S
#1005299
0T
#1005357
1U
#1005522
1_
#1005602
1R
#1005660
0S
#1005718
1T
#1005776
0U
#1006057
1.
#1040000
b101 !
1%
#1040725
1W
#1043903
0`
#1043972
1Q
#1044030
0R
#1044088
1S
#1044146
0T
#1044204
1U
#1044409
0_
#1044467
0.
#1044525
0/
#1044583
00
#1044641
0V
#1045243
14
#1045803
1a
#1046110
1b
#1049163
18
1$
#1080000
b111 !
b110 !
0%
#1080725
17
#1080886
0W
#1084035
1Y
#1084204
0X
#1084273
1J
#1084294
0Q
#1084318
1`
#1084352
1R
#1084410
0S
#1084468
1T
#1084526
0U
#1084612
0a
#1084728
1,
#1084807
1.
#1084865
1/
#1084923
10
#1084935
0b
#1084981
1V
#1085026
0R
#1085084
1S
#1085142
0T
#1085200
1U
#1085378
04
#1085463
0.
#1085521
0/
#1085579
00
#1085637
0V
#1086239
14
#1087994
08
0$
#1120000
b111 !
1%
#1120725
1W
#1123903
0`
#1123972
1Q
#1124233
1a
#1124427
1_
#1124540
1b
#1124842
0a
#1125165
0b
#1160000
b1111 !
b1011 !
b1001 !
b1000 !
0%
#1160735
1@
#1160886
07
0W
#1160896
05
#1163877
12
#1164005
0<
#1164029
1H
#1164040
0I
#1164063
1D
#1164294
0Q
#1164318
1`
#1164460
1=
#1164472
0Y
#1164500
0\
#1164614
0J
#1164635
03
#1164638
1X
#1164672
1K
#1164731
0_
#1164822
0D
#1164850
1G
#1164875
0=
#1165277
1\
#1165402
1O
#1165522
1_
#1165602
1R
#1165617
0S
#1165675
1T
#1165733
0U
#1166130
10
#1166188
1V
#1166332
0T
#1166390
1U
#1166546
04
#1166754
1Z
#1166769
00
#1166827
0V
#1167429
14
#1167431
0Z
#1200000
b1001 !
1%
#1200725
1W
#1203903
0`
#1203972
1Q
#1204030
0R
#1204409
0_
#1204485
1.
#1204857
1a
#1205056
04
#1205164
1b
#1205675
0a
#1205998
0b
#1240000
b1011 !
b1010 !
0%
#1240725
17
#1240886
0W
#1244035
1Y
#1244204
0X
#1244273
1J
#1244294
0Q
#1244318
1`
#1244331
0K
#1244352
1R
#1244389
1L
#1244447
0M
#1244710
0,
#1244768
0-
#1244789
0.
#1244826
0[
#1244884
0N
#1245026
0R
#1245250
0O
#1245389
14
#1245481
1.
#1245482
0Y
#1246052
04
#1246257
1/
#1246337
1T
#1246395
0U
#1246532
1_
#1246612
1R
#1246792
10
#1246850
1V
#1247049
0.
#1247416
1Z
#1247973
1b
#1251026
18
1$
#1280000
b1011 !
1%
#1280725
1W
#1283744
0Z
#1283903
0`
#1283972
1Q
#1284030
0R
#1284335
0b
#1284409
0_
#1284485
1.
#1287394
08
0$
#1320000
b1111 !
b1101 !
b1100 !
0%
#1320735
15
#1320886
07
0W
#1323617
1I
#1323642
0H
#1323711
1<
#1324166
1=
#1324180
1Z
#1324194
1,
#1324294
0Q
#1324318
1`
#1324352
1R
#1324614
0J
#1324638
1X
#1324737
1b
#1324749
1_
#1324752
13
#1324789
0.
#1325051
0,
#1325076
1Y
#1325667
03
#1325729
1.
#1325764
0Z
#1326067
0R
#1326120
0_
#1326125
1S
#1326183
0T
#1326241
1U
#1326355
0b
#1326562
0/
#1326620
00
#1326649
0S
#1326678
0V
#1326707
1T
#1326765
0U
#1327104
1/
#1327162
10
#1327220
1V
#1360000
b1101 !
1%
#1360725
1W
#1363903
0`
#1363972
1Q
#1364427
1_
#1400000
b1111 !
b1110 !
0%
#1400725
17
#1400886
0W
#1404204
0X
#1404273
1J
#1404294
0Q
#1404318
1`
#1404648
0Y
#1404728
1,
#1404731
0_
#1405286
13
#1405426
1Z
#1405698
1_
#1405778
1R
#1405983
1b
#1406298
0Z
#1406889
0b
#1440000
b1111 !
1%
#1440725
1W
#1443903
0`
#1443972
1Q
#1444030
0R
#1444088
1S
#1444146
0T
#1444204
1U
#1444409
0_
#1444467
0.
#1444525
0/
#1444583
00
#1444641
0V
#1445243
14
#1445803
1a
#1446110
1b
#1449163
18
1$
#1480000
b11111 !
b10111 !
b10011 !
b10001 !
b10000 !
0%
#1480775
16
#1480886
07
0W
#1480896
0@
05
#1483677
1C
#1484005
0<
#1484029
1H
#1484040
0I
#1484294
0Q
02
#1484318
1`
#1484352
1R
#1484410
0S
#1484442
0=
#1484468
1T
#1484526
0U
#1484612
0a
#1484614
0J
#1484638
1X
#1484657
1]
#1484672
1K
#1484679
0\
#1484730
0L
#1484749
1_
#1484756
1E
#1484788
1M
#1484807
1.
#1484865
1/
#1484923
10
#1484935
0b
#1484981
1V
#1485076
1Y
#1485127
1-
#1485184
0M
#1485193
0F
#1485301
0G
#1485308
1=
#1485378
04
#1485388
1D
#1485446
0E
#1485516
0u
#1485685
1O
#1485843
1\
#1485901
1F
#1485925
0-
#1485989
1G
1I
#1486067
0R
#1486120
0_
#1486125
1S
#1486183
0T
#1486208
1u
#1486241
1U
#1486504
0.
#1486519
0K
#1486542
0O
#1486574
0,
#1486577
1L
#1486620
00
#1486639
0G
0I
#1486678
0V
#1487032
1[
#1487190
03
#1487212
0L
#1487238
1-
#1487259
1,
#1487340
1K
#1487561
0/
#1487590
1^
#1487649
0[
#1487777
0-
#1487796
1O
#1487817
13
#1487894
14
#1487994
08
0$
#1488241
0^
#1488326
10
#1488394
0O
#1488742
04
#1489029
00
#1489479
14
#1520000
b111 "
b0 !
b1 !
1%
#1520725
1:
1W
#1520936
06
#1523715
1A
#1523894
0=
#1523898
1_
#1523903
0`
#1523907
0,
#1523972
1Q
#1524107
0C
#1524409
0_
#1524523
03
#1524857
1a
#1525134
0\
#1525138
0]
#1525164
1b
#1525505
0S
#1525531
1.
#1525563
1T
#1525621
0U
#1525754
1[
#1525834
1M
#1525960
1/
#1526018
10
#1526076
1V
#1526102
04
#1526289
1N
#1526312
1^
#1526621
0^
#1526721
0a
#1526867
0Y
#1527044
0b
#1527917
1_
#1527997
1R
#1528434
0.
#1560000
b11 !
b10 !
0%
#1560725
17
#1560886
0W
#1564035
1Y
#1564180
1Z
#1564204
0X
#1564273
1J
#1564294
0Q
#1564318
1`
#1564728
1,
#1564737
1b
#1564790
0Z
#1565381
0b
#1600000
b11 !
1%
#1600725
1W
#1603903
0`
#1603972
1Q
#1604030
0R
#1604409
0_
#1604485
1.
#1640000
b111 !
b101 !
b100 !
0%
#1640735
15
#1640886
07
0W
#1643617
1I
#1643642
0H
#1643711
1<
#1644147
0K
#1644166
1=
#1644169
13
#1644202
0,
#1644294
0Q
#1644318
1`
#1644352
1R
#1644472
0Y
#1644602
1-
#1644614
0J
#1644638
1X
#1644672
1K
#1644749
1_
#1644789
0.
#1645069
1,
#1645109
0-
#1645146
1.
#1645534
0_
#1680000
b101 !
1%
#1680725
1W
#1683903
0`
#1683972
1Q
#1684427
1_
#1720000
b111 !
b110 !
0%
#1720725
17
#1720886
0W
#1724035
1Y
#1724204
0X
#1724273
1J
#1724294
0Q
#1724318
1`
#1724331
0K
#1724710
0,
#1724786
1-
#1760000
b111 !
1%
#1760725
1W
#1763903
0`
#1763972
1Q
#1764030
0R
#1764088
1S
#1764146
0T
#1764204
1U
#1764409
0_
#1764467
0.
#1764525
0/
#1764583
00
#1764641
0V
#1765243
14
#1765803
1a
#1766110
1b
#1769163
18
1$
#1800000
b1111 !
b1011 !
b1001 !
b1000 !
0%
#1800735
1@
#1800886
07
0W
#1800896
05
#1803863
0A
#1803877
12
#1804005
0<
#1804029
1H
#1804040
0I
#1804294
0Q
#1804318
1`
#1804352
1R
#1804410
0S
#1804442
0=
#1804468
1T
#1804472
0Y
#1804526
0U
#1804612
0a
#1804614
0J
#1804635
03
#1804638
1X
#1804741
1K
#1804749
1_
#1804807
1.
#1804850
1G
#1804863
1=
#1804865
1/
#1804923
10
#1804935
0b
#1804981
1V
#1805378
04
#1805402
1O
#1805534
0_
#1805669
0.
#1805674
1Z
#1806332
0T
#1806385
0/
#1806390
1U
#1806769
00
#1806827
0V
#1807429
14
#1807431
0Z
#1807994
08
0$
#1840000
b1001 !
1%
#1840725
1W
#1843903
0`
#1843972
1Q
#1844233
1a
#1844427
1_
#1844540
1b
#1844842
0a
#1845165
0b
#1880000
b1011 !
b1010 !
0%
#1880725
17
#1880886
0W
#1884035
1Y
#1884204
0X
#1884273
1J
#1884294
0Q
#1884318
1`
#1884728
1,
#1920000
b1011 !
1%
#1920725
1W
#1923903
0`
#1923972
1Q
#1924030
0R
#1924409
0_
#1924485
1.
#1924857
1a
#1925056
04
#1925164
1b
#1925675
0a
#1925998
0b
#1960000
b1111 !
b1101 !
b1100 !
0%
#1960735
15
#1960886
07
0W
#1963617
1I
#1963642
0H
#1963711
1<
#1963769
0D
#1964147
0K
#1964148
0=
#1964169
13
#1964202
0,
#1964205
1L
#1964224
1\
#1964263
0M
#1964294
0Q
#1964318
1`
#1964352
1R
#1964472
0Y
#1964584
0-
#1964614
0J
#1964638
1X
#1964642
0[
#1964672
1K
#1964700
0N
#1964730
0L
#1964749
1_
#1964788
1M
#1964789
0.
#1965066
03
0O
#1965069
1,
#1965127
1-
#1965146
1.
#1965185
1[
#1965243
1N
#1965300
1Y
#1965534
0_
#1965627
13
#1965685
1O
#1965821
0Y
#2000000
b1101 !
1%
#2000725
1W
#2003903
0`
#2003972
1Q
#2004427
1_
#2040000
b1111 !
b1110 !
0%
#2040725
17
#2040886
0W
#2044035
1Y
#2044204
0X
#2044273
1J
#2044294
0Q
#2044318
1`
#2044331
0K
#2044389
1L
#2044447
0M
#2044710
0,
#2044768
0-
#2044826
0[
#2044884
0N
#2045250
03
0O
#2045482
0Y
#2046257
1/
#2046284
0.
#2046337
1T
#2046395
0U
#2046544
0_
#2046792
10
#2046850
1V
#2047416
1Z
#2047973
1b
#2051026
18
1$
#2080000
b1111 !
1%
#2080725
1W
#2083744
0Z
#2083903
0`
#2083972
1Q
#2084335
0b
#2084427
1_
#2087394
08
0$
#2120000
b11111 !
b10111 !
b10011 !
b10001 !
b10000 !
0%
#2120775
16
#2120886
07
0W
#2120896
0@
05
#2123677
1C
#2124005
0<
#2124029
1H
#2124040
0I
#2124063
1D
#2124180
1Z
#2124283
1A
#2124294
0Q
02
#2124318
1`
#2124460
1=
#2124614
0J
#2124638
1X
#2124657
1]
#2124731
0_
#2124737
1b
#2124741
1K
#2124799
0L
#2124857
1M
#2125076
1Y
#2125184
0M
#2125196
1-
#2125301
0G
#2125320
0=
#2125754
1O
#2125831
0Z
#2125925
0-
#2126108
1_
#2126422
0b
#2126542
0O
#2126684
0T
#2126737
0/
#2126742
1U
#2127121
00
#2127179
0V
#2127549
1/
#2127629
1T
#2127687
0U
#2128084
10
#2128142
1V
#2160000
b10001 !
1%
#2160725
1W
#2163903
0`
#2163972
1Q
#2164030
0R
#2164409
0_
#2164485
1.
#2200000
b10011 !
b10010 !
0%
#2200725
17
#2200886
0W
#2204204
0X
#2204273
1J
#2204294
0Q
#2204318
1`
#2204352
1R
#2204648
0Y
#2204728
1,
#2204749
1_
#2204789
0.
#2205286
13
#2205426
1Z
#2205710
0_
#2205983
1b
#2206263
1.
#2206298
0Z
#2206889
0b
#2240000
b10011 !
1%
#2240725
1W
#2243903
0`
#2243972
1Q
#2244427
1_
#2280000
b10111 !
b10101 !
b10100 !
0%
#2280735
15
#2280886
07
0W
#2283617
1I
#2283642
0H
#2283711
1<
#2284147
0K
#2284166
1=
#2284202
0,
#2284294
0Q
#2284318
1`
#2284602
1-
#2284614
0J
#2284638
1X
#2284672
1K
#2284731
0_
#2284818
03
#2285069
1,
#2285076
1Y
#2285109
0-
#2285160
1O
#2285627
13
#2285726
0O
