hamming_weight_calculator/simulation/qsim/hamming_weight_calculator.msim.vcd
$comment
	File created using the following command:
		vcd file hamming_weight_calculator.msim.vcd -direction
$end
$date
	Wed Jul 06 03:00:44 2016
$end
$version
	ModelSim Version 10.1d
$end
$timescale
	1ps
$end
$scope module hamming_weight_calculator_vlg_vec_tst $end
$var reg 7 ! hwc_in [6:0] $end
$var wire 1 " hwc_led_out [2] $end
$var wire 1 # hwc_led_out [1] $end
$var wire 1 $ hwc_led_out [0] $end
$var wire 1 % hwc_ssd_out [6] $end
$var wire 1 & hwc_ssd_out [5] $end
$var wire 1 ' hwc_ssd_out [4] $end
$var wire 1 ( hwc_ssd_out [3] $end
$var wire 1 ) hwc_ssd_out [2] $end
$var wire 1 * hwc_ssd_out [1] $end
$var wire 1 + hwc_ssd_out [0] $end
$var wire 1 , sampler $end
$scope module i1 $end
$var wire 1 - gnd $end
$var wire 1 . vcc $end
$var wire 1 / unknown $end
$var tri1 1 0 devclrn $end
$var tri1 1 1 devpor $end
$var tri1 1 2 devoe $end
$var wire 1 3 hwc_calculator|ones[4][2]~4_combout $end
$var wire 1 4 hwc_in[1]~input_o $end
$var wire 1 5 hwc_led_out[0]~output_o $end
$var wire 1 6 hwc_led_out[1]~output_o $end
$var wire 1 7 hwc_led_out[2]~output_o $end
$var wire 1 8 hwc_ssd_out[0]~output_o $end
$var wire 1 9 hwc_ssd_out[1]~output_o $end
$var wire 1 : hwc_ssd_out[2]~output_o $end
$var wire 1 ; hwc_ssd_out[3]~output_o $end
$var wire 1 < hwc_ssd_out[4]~output_o $end
$var wire 1 = hwc_ssd_out[5]~output_o $end
$var wire 1 > hwc_ssd_out[6]~output_o $end
$var wire 1 ? hwc_in[6]~input_o $end
$var wire 1 @ hwc_in[4]~input_o $end
$var wire 1 A hwc_in[5]~input_o $end
$var wire 1 B hwc_in[2]~input_o $end
$var wire 1 C hwc_in[0]~input_o $end
$var wire 1 D hwc_in[3]~input_o $end
$var wire 1 E hwc_calculator|ones[3][0]~0_combout $end
$var wire 1 F hwc_calculator|integer_out[0]~0_combout $end
$var wire 1 G hwc_calculator|ones[5][0]~3_combout $end
$var wire 1 H hwc_calculator|ones[5][1]~2_combout $end
$var wire 1 I hwc_calculator|integer_out[1]~1_combout $end
$var wire 1 J hwc_calculator|ones[3][1]~1_combout $end
$var wire 1 K hwc_calculator|ones[5][2]~5_combout $end
$var wire 1 L hwc_calculator|ones[5][2]~6_combout $end
$var wire 1 M hwc_calculator|integer_out[2]~2_combout $end
$var wire 1 N hwc_ssd|decimal_out[0]~0_combout $end
$var wire 1 O hwc_ssd|decimal_out[1]~1_combout $end
$var wire 1 P hwc_ssd|decimal_out[2]~2_combout $end
$var wire 1 Q hwc_ssd|decimal_out[3]~3_combout $end
$var wire 1 R hwc_ssd|decimal_out[4]~4_combout $end
$var wire 1 S hwc_ssd|decimal_out[5]~5_combout $end
$var wire 1 T hwc_ssd|decimal_out[6]~6_combout $end
$upscope $end
$upscope $end
$enddefinitions $end
#0
$dumpvars
b0 !
x$
x#
x"
x+
x*
x)
x(
x'
x&
x%
x,
0-
1.
x/
10
11
12
x3
04
x5
x6
x7
x8
x9
x:
x;
x<
x=
x>
0?
0@
0A
0B
0C
0D
xE
xF
xG
xH
xI
xJ
xK
xL
xM
xN
xO
xP
xQ
xR
xS
xT
$end
#3115
03
#3419
0J
#3646
0K
#3969
0L
#4080
0E
#4354
0M
0S
#4486
0H
#4832
0F
#4834
0G
#4905
0I
#5197
0R
#5200
0N
#5516
0Q
#5518
0T
#5531
0P
#5541
0O
#7099
0=
0&
#7210
07
0"
#7374
05
0$
#7737
18
1+
#7768
0<
0'
#8334
0;
0(
#8357
0>
0%
#8376
09
0*
#8882
0:
0)
#9082
06
0#
#50000
b1 !
0,
#50689
1C
#54449
1E
#55188
1G
#55189
1F
#55804
1P
#55808
1T
#55812
1Q
#55825
1O
#57739
15
1$
#58641
1;
1(
#58647
1>
1%
#58674
19
1*
#59183
1:
1)
#100000
b11 !
b10 !
1,
#100775
14
#100852
0C
#103902
1J
#103937
0E
#104689
0F
#104691
0G
#104930
1H
#104931
0J
#104933
1E
#105297
1I
#105373
0Q
#105375
0T
#105388
0P
#105552
1N
#105557
1R
#105672
1G
#105673
1F
#105998
0H
#106288
1P
#106321
0R
#106417
0I
#106710
1Q
#106712
0N
#106717
1T
#150000
b11 !
0,
#150689
1C
#154448
1J
0E
#155200
0F
#155202
0G
#155476
1H
#155843
1I
#155884
0Q
#155886
0T
#155899
0P
#156098
1N
#156103
1R
#157742
05
0$
#158640
08
0+
#158682
1<
1'
#158702
0;
0(
#158725
0>
0%
#159250
0:
0)
#159907
16
1#
#200000
b111 !
b101 !
b100 !
1,
#200775
1B
#200852
0C
#200936
04
#203706
1E
#204365
0E
#204445
1G
#204446
1F
#204931
0J
#204933
1E
#205061
1P
#205094
0R
#205998
0H
#206417
0I
#206710
1Q
#206712
0N
#206717
1T
#206996
15
1$
#207665
0<
0'
#208440
1:
1)
#209249
18
1+
#209539
1;
1(
#209556
1>
1%
#210594
06
0#
#250000
b101 !
0,
#250689
1C
#254448
1J
0E
#255200
0F
#255202
0G
#255476
1H
#255843
1I
#255884
0Q
#255886
0T
#255899
0P
#256098
1N
#256103
1R
#257742
05
0$
#258640
08
0+
#258682
1<
1'
#258702
0;
0(
#258725
0>
0%
#259250
0:
0)
#259907
16
1#
#300000
b111 !
b110 !
1,
#300775
14
#300852
0C
#303932
1E
#304671
1G
#304672
1F
#304932
0E
#305287
1P
#305320
0R
#305684
0F
#305686
0G
#306383
0P
#306395
1R
#350000
b111 !
0,
#350689
1C
#354449
1E
#355188
1G
#355189
1F
#355804
1P
#355837
0R
#357739
15
1$
#358408
0<
0'
#359183
1:
1)
#400000
b1111 !
b1011 !
b1001 !
b1000 !
1,
#400745
1D
#400852
0C
#400936
0B
04
#403641
0E
0J
#403650
13
#404051
03
#404087
1J
#404393
0F
#404395
0G
#404931
0J
#404933
1E
#405092
0P
#405104
1R
#405672
1G
#405673
1F
#405998
0H
#406288
1P
#406321
0R
#406417
0I
#406710
1Q
#406712
0N
#406717
1T
#409249
18
1+
#409539
1;
1(
#409556
1>
1%
#410594
06
0#
#450000
b1001 !
0,
#450689
1C
#454448
1J
0E
#455200
0F
#455202
0G
#455476
1H
#455843
1I
#455884
0Q
#455886
0T
#455899
0P
#456098
1N
#456103
1R
#457742
05
0$
#458640
08
0+
#458682
1<
1'
#458702
0;
0(
#458725
0>
0%
#459250
0:
0)
#459907
16
1#
#500000
b1011 !
b1010 !
1,
#500775
14
#500852
0C
#503932
1E
#504671
1G
#504672
1F
#504932
0E
#505287
1P
#505320
0R
#505684
0F
#505686
0G
#506383
0P
#506395
1R
#550000
b1011 !
0,
#550689
1C
#554449
1E
#555188
1G
#555189
1F
#555804
1P
#555837
0R
#557739
15
1$
#558408
0<
0'
#559183
1:
1)
#600000
b1111 !
b1101 !
b1100 !
1,
#600775
1B
#600852
0C
#600936
04
#603624
13
#603694
0J
#603705
0E
#604295
03
#604329
1J
#604360
1E
#604457
0F
#604459
0G
#604611
1L
#604932
0E
#604954
0O
#604963
1M
#604967
1S
#605156
0P
#605323
0L
#605708
0M
0S
#605719
1O
#605720
1R
#606999
05
0$
#608299
1<
1'
#608507
0:
0)
#650000
b1101 !
0,
#650689
1C
#654449
1E
#655188
1G
#655189
1F
#655804
1P
#655837
0R
#657739
15
1$
#658408
0<
0'
#659183
1:
1)
#700000
b1111 !
b1110 !
1,
#700775
14
#700852
0C
#703860
13
#703928
0J
#703937
0E
#704689
0F
#704691
0G
#704847
1L
#704932
1J
03
#704933
1E
#704995
0H
#705190
0O
#705199
1M
#705203
1S
#705414
0I
#705662
0S
#705672
1G
#705673
1F
#705707
1Q
#705714
1T
#705960
0L
1H
#706286
0T
#706327
1I
#706345
0M
#706349
0Q
#706356
1O
#750000
b1111 !
0,
#750689
1C
#754446
13
#754447
0J
#754448
0E
#755200
0F
#755202
0G
#755433
1L
#755514
0H
#755776
0O
#755785
1M
#755789
1S
#755933
0I
#756181
0S
#756226
1Q
#756233
1T
#757742
05
0$
#758611
09
0*
#758636
17
1"
#759055
1;
1(
#759072
1>
1%
#760110
06
0#
#800000
b11111 !
b10111 !
b10011 !
b10001 !
b10000 !
1,
#800689
1@
#800852
0C
#800906
0D
#800936
0B
04
#804051
03
#804060
1G
#804077
1F
#804360
1E
#804666
1S
#804674
0T
#804678
0Q
#804932
0E
#805079
0L
#805464
0M
0S
#805469
0N
#805475
1O
#805478
1Q
#805481
1T
#806627
15
1$
#808006
18
1+
#808320
07
0"
#808324
19
1*
#850000
b10001 !
0,
#850689
1C
#854449
1E
#855178
0G
#855179
0F
#855188
1H
1K
#855555
1I
#855810
1N
#855830
0Q
#855833
0T
#855875
0P
#855887
1R
#857721
05
0$
#858352
08
0+
#858466
1<
1'
#858648
0;
0(
#858672
0>
0%
#859226
0:
0)
#859619
16
1#
#900000
b10011 !
b10010 !
1,
#900775
14
#900852
0C
#903902
1J
#903937
0E
#904686
0K
#904699
1F
#904701
1G
#904779
1L
#904931
0J
#904933
1E
#905009
0L
#905125
0N
#905131
1M
#905135
1Q
#905317
1P
#905350
0R
#905394
0M
#905398
0Q
#905409
1N
#905662
0G
#905663
0F
#905672
1K
#906359
0P
#906371
1R
#950000
b10011 !
0,
#950689
1C
#954448
1J
0E
#955197
0K
#955210
1F
#955212
1G
#955325
1L
#955520
0L
#955828
1P
#955861
0R
#957760
15
1$
#958432
0<
0'
#959207
1:
1)
