code_converter/simulation/qsim/code_converter.msim.vcd
$comment
	File created using the following command:
		vcd file code_converter.msim.vcd -direction
$end
$date
	Wed Aug 31 23:50:09 2016
$end
$version
	ModelSim Version 10.1d
$end
$timescale
	1ps
$end
$scope module code_converter_vlg_vec_tst $end
$var reg 3 ! x [2:0] $end
$var wire 1 " y [6] $end
$var wire 1 # y [5] $end
$var wire 1 $ y [4] $end
$var wire 1 % y [3] $end
$var wire 1 & y [2] $end
$var wire 1 ' y [1] $end
$var wire 1 ( y [0] $end
$var wire 1 ) sampler $end
$scope module i1 $end
$var wire 1 * gnd $end
$var wire 1 + vcc $end
$var wire 1 , unknown $end
$var tri1 1 - devclrn $end
$var tri1 1 . devpor $end
$var tri1 1 / devoe $end
$var wire 1 0 y[0]~output_o $end
$var wire 1 1 y[1]~output_o $end
$var wire 1 2 y[2]~output_o $end
$var wire 1 3 y[3]~output_o $end
$var wire 1 4 y[4]~output_o $end
$var wire 1 5 y[5]~output_o $end
$var wire 1 6 y[6]~output_o $end
$var wire 1 7 x[1]~input_o $end
$var wire 1 8 x[0]~input_o $end
$var wire 1 9 x[2]~input_o $end
$var wire 1 : LessThan0~0_combout $end
$var wire 1 ; LessThan1~0_combout $end
$var wire 1 < LessThan2~0_combout $end
$var wire 1 = LessThan4~0_combout $end
$var wire 1 > LessThan5~0_combout $end
$var wire 1 ? LessThan6~0_combout $end
$upscope $end
$upscope $end
$enddefinitions $end
#0
$dumpvars
b0 !
x(
x'
x&
x%
x$
x#
x"
x)
0*
1+
x,
1-
1.
1/
x0
x1
x2
x3
x4
x5
x6
07
08
09
x:
x;
x<
x=
x>
x?
$end
#3158
0?
#3159
0>
#3167
0<
#3169
0:
#3170
0;
#3234
0=
#5168
03
0%
#5691
01
0'
#5697
00
0(
#5769
04
0$
#5962
06
0"
#5982
05
0#
#6006
02
0&
#80000
b1 !
0)
#80725
18
#83712
1:
#86249
10
1(
#160000
b11 !
b10 !
1)
#160725
17
#160886
08
#163656
1<
#163672
1;
#164119
0<
#166201
11
1'
#240000
b11 !
0)
#240725
18
#243711
1<
#246547
12
1&
#320000
b111 !
b101 !
b100 !
1)
#320725
19
#320886
07
08
#323646
1?
#323647
1=
1>
#324044
0?
#324045
0>
#324120
0=
#325721
13
1%
#400000
b101 !
0)
#400725
18
#403712
1=
#406302
14
1$
#480000
b111 !
b110 !
1)
#480725
17
#480886
08
#483618
1>
1?
#484122
0?
#486442
15
1#
#560000
b111 !
0)
#560725
18
#563710
1?
#566527
16
1"
#640000
b11 !
b1 !
b0 !
1)
#640886
09
07
08
#644044
0?
#644045
0>
#644053
0<
#644055
0:
#644056
0;
#644120
0=
#646054
03
0%
#646577
01
0'
#646583
00
0(
#646655
04
0$
#646848
06
0"
#646868
05
0#
#646892
02
0&
#720000
b1 !
0)
#720725
18
#723712
1:
#726249
10
1(
#800000
b11 !
b10 !
1)
#800725
17
#800886
08
#803656
1<
#803672
1;
#804119
0<
#806201
11
1'
#880000
b11 !
0)
#880725
18
#883711
1<
#886547
12
1&
#960000
b111 !
b101 !
b100 !
1)
#960725
19
#960886
07
08
#963646
1?
#963647
1=
1>
#964044
0?
#964045
0>
#964120
0=
#965721
13
1%
