random_onehot_generator/simulation/qsim/random_onehot_generator.msim.vcd
$comment
	File created using the following command:
		vcd file random_onehot_generator.msim.vcd -direction
$end
$date
	Wed Aug 10 00:14:46 2016
$end
$version
	ModelSim Version 10.1d
$end
$timescale
	1ps
$end
$scope module random_onehot_generator_vlg_vec_tst $end
$var reg 1 ! clk $end
$var reg 1 " rst $end
$var wire 1 # onehot [7] $end
$var wire 1 $ onehot [6] $end
$var wire 1 % onehot [5] $end
$var wire 1 & onehot [4] $end
$var wire 1 ' onehot [3] $end
$var wire 1 ( onehot [2] $end
$var wire 1 ) onehot [1] $end
$var wire 1 * onehot [0] $end
$var wire 1 + sampler $end
$scope module i1 $end
$var wire 1 , gnd $end
$var wire 1 - vcc $end
$var wire 1 . unknown $end
$var tri1 1 / devclrn $end
$var tri1 1 0 devpor $end
$var tri1 1 1 devoe $end
$var wire 1 2 clk~input_o $end
$var wire 1 3 clk~inputclkctrl_outclk $end
$var wire 1 4 onehot[0]~output_o $end
$var wire 1 5 onehot[1]~output_o $end
$var wire 1 6 onehot[2]~output_o $end
$var wire 1 7 onehot[3]~output_o $end
$var wire 1 8 onehot[4]~output_o $end
$var wire 1 9 onehot[5]~output_o $end
$var wire 1 : onehot[6]~output_o $end
$var wire 1 ; onehot[7]~output_o $end
$var wire 1 < generator|count[0]~7_combout $end
$var wire 1 = rst~input_o $end
$var wire 1 > rst~inputclkctrl_outclk $end
$var wire 1 ? generator|count~1_combout $end
$var wire 1 @ generator|count~2_combout $end
$var wire 1 A generator|count[5]~3_combout $end
$var wire 1 B generator|count[6]~8_combout $end
$var wire 1 C generator|count[7]~9_combout $end
$var wire 1 D generator|feedback~0_combout $end
$var wire 1 E generator|feedback~q $end
$var wire 1 F generator|count[1]~4_combout $end
$var wire 1 G generator|count~0_combout $end
$var wire 1 H onehot~0_combout $end
$var wire 1 I onehot~1_combout $end
$var wire 1 J LessThan6~0_combout $end
$var wire 1 K onehot~2_combout $end
$var wire 1 L onehot~3_combout $end
$var wire 1 M onehot~4_combout $end
$var wire 1 N onehot~5_combout $end
$var wire 1 O onehot~6_combout $end
$var wire 1 P onehot~7_combout $end
$var wire 1 Q onehot~8_combout $end
$var wire 1 R onehot~9_combout $end
$var wire 1 S LessThan2~0_combout $end
$var wire 1 T onehot~11_combout $end
$var wire 1 U onehot~10_combout $end
$var wire 1 V onehot~12_combout $end
$var wire 1 W LessThan1~0_combout $end
$var wire 1 X onehot~13_combout $end
$var wire 1 Y onehot~14_combout $end
$var wire 1 Z LessThan0~0_combout $end
$var wire 1 [ LessThan0~1_combout $end
$var wire 1 \ onehot~15_combout $end
$var wire 1 ] onehot~16_combout $end
$var wire 1 ^ LessThan0~2_combout $end
$var wire 1 _ generator|count [7] $end
$var wire 1 ` generator|count [6] $end
$var wire 1 a generator|count [5] $end
$var wire 1 b generator|count [4] $end
$var wire 1 c generator|count [3] $end
$var wire 1 d generator|count [2] $end
$var wire 1 e generator|count [1] $end
$var wire 1 f generator|count [0] $end
$upscope $end
$upscope $end
$enddefinitions $end
#0
$dumpvars
0!
0"
x*
x)
x(
x'
x&
x%
x$
x#
x+
0,
1-
x.
1/
10
11
02
x3
x4
x5
x6
x7
x8
x9
x:
x;
x<
0=
x>
x?
x@
xA
xB
xC
xD
0E
xF
xG
xH
xI
xJ
xK
xL
xM
xN
xO
xP
xQ
xR
xS
xT
xU
xV
xW
xX
xY
xZ
x[
x\
x]
x^
0f
0e
0d
0c
0b
0a
0`
0_
$end
#145
0>
03
#428
0D
#439
1C
#440
1A
1B
#448
1F
#566
1<
#573
0?
#574
0@
0G
#591
0T
#633
0U
0X
#684
0H
#730
1W
#731
0L
#747
0Q
#762
1N
#768
0O
#769
0I
#879
0Z
#895
0\
#899
0S
#932
1[
#934
1^
#953
0Y
#1099
0K
#1110
1J
#1226
1]
#1453
1M
#1632
0V
#2047
0R
#2181
1P
#3483
09
0%
#3669
04
0*
#3772
05
0)
#3904
0:
0$
#4349
08
0&
#4574
07
0'
#4728
16
1(
#4957
0;
0#
#40000
1!
0+
#40775
12
#40938
13
#50000
1"
1+
#50765
1=
#50928
1>
#80000
0!
0+
#80936
02
#81081
03
#120000
1!
1+
#120775
12
#120938
13
#122637
1f
1a
1`
1_
1e
#122996
0C
#122997
0B
#123003
0F
#123006
1G
1D
#123014
1?
#123192
0N
#123316
1X
#123436
0M
#123441
1\
#123620
1Y
#123650
0P
#126158
19
1%
#126189
06
0(
#160000
0!
0+
#160936
02
#161081
03
#200000
1!
1+
#200775
12
#200938
13
#202637
1d
0`
0_
1E
0e
1c
#203065
0D
#203076
1C
#203115
0<
#203120
0?
#203176
1T
#203270
0X
#203399
1N
#203400
0[
#203446
1S
#203501
0]
#203532
0\
#203546
1R
#203590
0Y
#203863
1]
#204116
0T
#206081
17
1'
#206120
09
0%
#240000
0!
0+
#240936
02
#241081
03
#280000
1!
1+
#280775
12
#280938
13
#282637
0f
0d
1_
0E
#283006
1D
#283085
1F
#283191
0R
#283192
0N
#283203
1<
#283211
0G
#283371
0W
#283373
1L
#283414
1Q
#283483
0^
#283536
0S
#284249
1T
#285718
07
0'
#287623
1;
1#
#320000
0!
0+
#320936
02
#321081
03
#360000
1!
1+
#360775
12
#360938
13
#362637
1f
1E
1e
0c
#363003
0F
#363115
0<
#363125
1@
#363228
0T
#363367
1W
#363368
0L
#363384
0Q
#400000
0!
0+
#400936
02
#401081
03
#440000
1!
1+
#440775
12
#440938
13
#442637
0f
1b
0e
#442998
0A
#443075
1G
#443085
1F
#443086
1?
#480000
0!
0+
#480936
02
#481081
03
#520000
1!
1+
#520775
12
#520938
13
#522637
1d
0a
1e
1c
#522995
0@
#522996
0G
#523077
1B
#523505
1M
#523569
1[
#523879
1\
#523881
1^
#524174
0]
#526832
1:
1$
#527904
0;
0#
#560000
0!
0+
#560936
02
#561081
03
#600000
1!
1+
#600775
12
#600938
13
#602637
0b
1`
0c
#602996
0C
#603077
1A
#603316
1U
1X
#603415
1]
#603621
1V
#606093
0:
0$
#606360
18
1&
#640000
0!
0+
#640936
02
#641081
03
#680000
1!
1+
#680775
12
#680938
13
#682637
1a
0_
#682997
0B
#683065
0D
#683270
0X
#683274
1I
#683279
1O
#683429
1Y
#683432
0U
#683436
0M
#683532
0\
#683586
1K
#683590
0Y
#683753
0V
#686303
15
1)
#686470
08
0&
#720000
0!
0+
#720936
02
#721081
03
#760000
1!
1+
#760775
12
#760938
13
#762637
0`
0E
#763076
1C
#763203
1<
#763210
0?
#763213
1@
1G
#763399
1N
#763400
0[
#763405
0O
#763406
0I
#763546
1R
#763736
0K
#766081
17
1'
#766409
05
0)
#800000
0!
0+
#800936
02
#801081
03
#840000
1!
1+
#840775
12
#840938
13
#842637
1f
0d
1b
1_
1c
#842998
0A
#843003
0F
#843006
1D
#843014
1?
#843064
0@
#843191
0R
#843192
0N
#843483
0^
#845718
07
0'
#847623
1;
1#
#880000
0!
0+
#880936
02
#881081
03
#920000
1!
1+
#920775
12
#920938
13
#922637
1d
0b
0a
1E
0e
#923077
1B
1A
#923115
0<
#923120
0?
#923371
1T
#923382
1Z
#923446
1S
#923505
1M
#923976
1^
#923977
1\
#924116
0T
#924272
0]
#926930
1:
1$
#927999
0;
0#
#960000
0!
0+
#960936
02
