tflipflop/simulation/qsim/tflipflop.msim.vcd
$comment
	File created using the following command:
		vcd file tflipflop.msim.vcd -direction
$end
$date
	Tue Aug 30 01:15:29 2016
$end
$version
	ModelSim Version 10.1d
$end
$timescale
	1ps
$end
$scope module tflipflop_vlg_vec_tst $end
$var reg 1 ! clk $end
$var reg 1 " d $end
$var reg 1 # enable $end
$var wire 1 $ d_and_enable $end
$var wire 1 % q $end
$var wire 1 & sampler $end
$scope module i1 $end
$var wire 1 ' gnd $end
$var wire 1 ( vcc $end
$var wire 1 ) unknown $end
$var tri1 1 * devclrn $end
$var tri1 1 + devpor $end
$var tri1 1 , devoe $end
$var wire 1 - d_and_enable~output_o $end
$var wire 1 . q~output_o $end
$var wire 1 / enable~input_o $end
$var wire 1 0 d~input_o $end
$var wire 1 1 d_and_enable~0_combout $end
$var wire 1 2 clk~input_o $end
$var wire 1 3 q~0_combout $end
$var wire 1 4 q~reg0_q $end
$upscope $end
$upscope $end
$enddefinitions $end
#0
$dumpvars
0!
0"
0#
x$
x%
x&
0'
1(
x)
1*
1+
1,
x-
x.
0/
00
x1
02
x3
04
$end
#2623
0.
0%
#2861
01
03
#5439
0-
0$
#20000
1!
0&
#20765
12
#40000
0!
1&
#40926
02
#60000
1!
0&
#60765
12
#80000
0!
1&
#80926
02
#100000
1"
1!
0&
#100735
10
#100765
12
#120000
0!
1&
#120926
02
#140000
1!
0&
#140765
12
#160000
0!
1&
#160926
02
#180000
1!
0&
#180765
12
#200000
1#
0"
0!
1&
#200725
1/
#200896
00
#200926
02
#220000
1!
0&
#220765
12
#240000
0!
1&
#240926
02
#260000
1!
0&
#260765
12
#280000
0!
1&
#280926
02
#300000
1"
1!
0&
#300735
10
#300765
12
#303354
13
#303355
11
#305942
1-
1$
#320000
0!
1&
#320926
02
#340000
1!
0&
#340765
12
#342048
14
#342417
03
#344640
1.
1%
#360000
0!
1&
#360926
02
#380000
1!
0&
#380765
12
#382048
04
#382401
13
#384671
0.
0%
#400000
0#
0"
0!
1&
#400886
0/
#400896
00
#400926
02
#403757
01
03
#406335
0-
0$
#420000
1!
0&
#420765
12
#440000
0!
1&
#440926
02
#460000
1!
0&
#460765
12
#480000
0!
1&
#480926
02
#500000
1!
0&
#500765
12
#520000
0!
1&
#520926
02
#540000
1!
0&
#540765
12
#560000
0!
1&
#560926
02
#580000
1!
0&
#580765
12
#600000
0!
1&
#600926
02
#620000
1!
0&
#620765
12
#640000
0!
1&
#640926
02
#660000
1!
0&
#660765
12
#680000
0!
1&
#680926
02
#700000
1!
0&
#700765
12
#720000
0!
1&
#720926
02
#740000
1!
0&
#740765
12
#760000
0!
1&
#760926
02
#780000
1!
0&
#780765
12
#800000
0!
1&
#800926
02
#820000
1!
0&
#820765
12
#840000
0!
1&
#840926
02
#860000
1!
0&
#860765
12
#880000
0!
1&
#880926
02
#900000
1!
0&
#900765
12
#920000
0!
1&
#920926
02
#940000
1!
0&
#940765
12
#960000
0!
1&
#960926
02
#980000
1!
0&
#980765
12
