password_detector/simulation/qsim/password_detector.msim.vcd
$comment
	File created using the following command:
		vcd file password_detector.msim.vcd -direction
$end
$date
	Tue Aug 30 12:02:12 2016
$end
$version
	ModelSim Version 10.1d
$end
$timescale
	1ps
$end
$scope module password_detector_vlg_vec_tst $end
$var reg 1 ! clk $end
$var reg 4 " key [3:0] $end
$var reg 1 # rst $end
$var wire 1 $ led1 $end
$var wire 1 % led2 $end
$var wire 1 & sampler $end
$scope module i1 $end
$var wire 1 ' gnd $end
$var wire 1 ( vcc $end
$var wire 1 ) unknown $end
$var tri1 1 * devclrn $end
$var tri1 1 + devpor $end
$var tri1 1 , devoe $end
$var wire 1 - Selector5~0_combout $end
$var wire 1 . t[1]~5_combout $end
$var wire 1 / key[1]~input_o $end
$var wire 1 0 led1~output_o $end
$var wire 1 1 led2~output_o $end
$var wire 1 2 key[2]~input_o $end
$var wire 1 3 key[0]~input_o $end
$var wire 1 4 key[3]~input_o $end
$var wire 1 5 Equal1~0_combout $end
$var wire 1 6 Selector0~0_combout $end
$var wire 1 7 Selector2~1_combout $end
$var wire 1 8 Selector2~0_combout $end
$var wire 1 9 Selector1~0_combout $end
$var wire 1 : prev_state.ready~feeder_combout $end
$var wire 1 ; rst~input_o $end
$var wire 1 < rst~inputclkctrl_outclk $end
$var wire 1 = prev_state.ready~q $end
$var wire 1 > Selector2~2_combout $end
$var wire 1 ? prev_state.key1~q $end
$var wire 1 @ Selector3~0_combout $end
$var wire 1 A process_2~0_combout $end
$var wire 1 B process_2~2_combout $end
$var wire 1 C Selector3~1_combout $end
$var wire 1 D prev_state.wait1~q $end
$var wire 1 E prev_state.key2~q $end
$var wire 1 F Selector4~0_combout $end
$var wire 1 G Selector4~1_combout $end
$var wire 1 H t[1]~3_combout $end
$var wire 1 I prev_state.wait2~q $end
$var wire 1 J process_2~1_combout $end
$var wire 1 K Selector5~1_combout $end
$var wire 1 L t[1]~2_combout $end
$var wire 1 M t[1]~4_combout $end
$var wire 1 N t[0]~7_combout $end
$var wire 1 O t[1]~6_combout $end
$var wire 1 P Equal0~0_combout $end
$var wire 1 Q Selector0~1_combout $end
$var wire 1 R Selector0~2_combout $end
$var wire 1 S prev_state.idle~q $end
$var wire 1 T led1~0_combout $end
$var wire 1 U clk~input_o $end
$var wire 1 V clk~inputclkctrl_outclk $end
$var wire 1 W Selector6~0_combout $end
$var wire 1 X prev_state.unlocked~feeder_combout $end
$var wire 1 Y prev_state.unlocked~q $end
$var wire 1 Z t [1] $end
$var wire 1 [ t [0] $end
$upscope $end
$upscope $end
$enddefinitions $end
#0
$dumpvars
0!
b0 "
0#
x$
x%
x&
0'
1(
x)
1*
1+
1,
x-
x.
0/
x0
x1
02
03
04
x5
x6
x7
x8
x9
x:
0;
x<
0=
x>
0?
x@
xA
xB
xC
0D
0E
xF
xG
xH
0I
xJ
xK
xL
xM
xN
xO
xP
xQ
xR
0S
1T
0U
xV
xW
xX
0Y
0[
0Z
$end
#145
0V
0<
#451
0P
#719
0Q
#843
0@
#859
0-
#872
0>
#878
0F
#939
0W
#1452
0C
#1462
0O
#1471
0K
#1479
0G
#1565
0X
#1782
1H
#2815
10
1$
#2875
01
0%
#3131
08
#3250
0B
#3362
0J
#3413
15
#3430
1A
#3761
06
#4023
19
#4374
07
#4382
1R
#4461
1:
#4682
0L
#4819
0.
#5002
0M
#5509
0N
#20000
1!
0&
#20775
1U
#20938
1V
#40000
1#
0!
1&
#40765
1;
#40928
1<
#40936
0U
#41081
0V
#60000
1!
0&
#60775
1U
#60938
1V
#62636
1=
1S
#63248
1.
#63447
1L
#63751
1M
#64062
1N
#80000
0!
1&
#80936
0U
#81081
0V
#100000
1!
0&
#100775
1U
#100938
1V
#102636
1[
#103005
0N
#104047
1O
#120000
b1000 "
0!
1&
#120689
14
#120936
0U
#121081
0V
#123557
05
#123565
18
#123643
0A
#124120
09
#124475
1>
#124545
17
#124590
0:
#124786
0L
#124890
0H
#125106
0M
#125436
0O
#140000
1!
0&
#140775
1U
#140938
1V
#142636
0=
1?
0[
#143071
0T
#143385
1H
#143423
1Q
#143507
1L
#143811
1M
#144122
1N
#145871
00
0$
#160000
0!
1&
#160936
0U
#161081
0V
#180000
1!
0&
#180775
1U
#180938
1V
#182636
1[
#183005
0N
#184047
1O
#200000
b0 "
0!
1&
#200852
04
#200936
0U
#201081
0V
#203983
08
#203994
15
#204056
1A
#204920
1@
#204955
07
#205417
0>
#205475
1C
#205865
0H
#206314
0M
#206644
0O
#220000
1!
0&
#220775
1U
#220938
1V
#222636
0?
1D
0[
#223430
1F
#223462
1H
#223876
1M
#224187
1N
#240000
0!
1&
#240936
0U
#241081
0V
#260000
1!
0&
#260775
1U
#260938
1V
#262636
1[
#263005
0N
#264047
1O
#280000
b100 "
0!
1&
#280709
12
#280936
0U
#281081
0V
#283698
1B
#283875
05
#284010
1G
#284526
0M
#284856
0O
#284858
0@
#284863
17
#285467
0C
#285787
0H
#300000
1!
0&
#300775
1U
#300938
1V
#302636
0D
1E
0[
#303503
1H
#303514
0F
#303917
1M
#304228
1N
#320000
0!
1&
#320936
0U
#321081
0V
#340000
1!
0&
#340775
1U
#340938
1V
#342636
1[
#343005
0N
#344047
1O
#360000
b0 "
0!
1&
#360872
02
#360936
0U
#361081
0V
#364122
0B
#364285
15
#365013
1-
#365246
07
#365569
1K
#365983
0L
#365998
0G
#366303
0M
#366633
0O
#380000
1!
0&
#380775
1U
#380938
1V
#382636
0E
1I
0[
#383393
1L
#383697
1M
#384008
1N
#400000
0!
1&
#400936
0U
#401081
0V
#420000
1!
0&
#420775
1U
#420938
1V
#422636
1[
#423005
0N
#424047
1O
#440000
b10 "
0!
1&
#440689
1/
#440936
0U
#441081
0V
#443771
1J
#443838
05
#444247
1W
#444563
0.
#444612
0-
#444826
17
#444853
1X
#445224
0K
#445255
0O
#445672
0L
#445992
0M
#460000
1!
0&
#460775
1U
#460938
1V
#462636
0I
0[
1Y
#463355
0Q
#463421
1.
#463479
1L
#463783
1M
#464094
1N
#465489
11
1%
#480000
0!
1&
#480936
0U
#481081
0V
#500000
1!
0&
#500775
1U
#500938
1V
#502636
1[
#503005
0N
#504047
1O
#520000
b0 "
0!
1&
#520852
0/
#520936
0U
#521081
0V
#524214
0J
#524258
15
#525219
07
#540000
1!
0&
#540775
1U
#540938
1V
#542636
0[
1Z
#542989
1N
#560000
0!
1&
#560936
0U
#561081
0V
#580000
1!
0&
#580775
1U
#580938
1V
#582636
1[
#583007
0A
#583021
1P
#583614
0R
#583615
0W
#583957
0.
#584241
0X
#584647
0N
#584649
0O
#600000
0!
1&
#600936
0U
#601081
0V
#620000
1!
0&
#620775
1U
#620938
1V
#622636
0[
0Z
0S
0Y
#622989
1T
#623087
0P
#623092
1A
#623190
19
#623356
1R
#623493
1.
#623628
1:
#623793
0.
#623849
0L
#624169
0M
#625511
01
0%
#625804
10
1$
#640000
0!
1&
#640936
0U
#641081
0V
#660000
1!
0&
#660775
1U
#660938
1V
#662636
1=
1S
#663248
1.
#663447
1L
#663751
1M
#664062
1N
#680000
0!
1&
#680936
0U
#681081
0V
#700000
1!
0&
#700775
1U
#700938
1V
#702636
1[
#703005
0N
#704047
1O
#720000
0!
1&
#720936
0U
#721081
0V
#740000
1!
0&
#740775
1U
#740938
1V
#742636
0[
1Z
#742989
1N
#760000
0!
1&
#760936
0U
#761081
0V
#780000
1!
0&
#780775
1U
#780938
1V
#782636
1[
#783007
0A
#783021
1P
#800000
0!
1&
#800936
0U
#801081
0V
#820000
1!
0&
#820775
1U
#820938
1V
#840000
0!
1&
#840936
0U
#841081
0V
#860000
1!
0&
#860775
1U
#860938
1V
#880000
0!
1&
#880936
0U
#881081
0V
#900000
1!
0&
#900775
1U
#900938
1V
#920000
0!
1&
#920936
0U
#921081
0V
#940000
1!
0&
#940775
1U
#940938
1V
#960000
0!
1&
#960936
0U
#961081
0V
#980000
1!
0&
#980775
1U
