synchronous_counter/simulation/qsim/synchronous_counter.msim.vcd
$comment
	File created using the following command:
		vcd file synchronous_counter.msim.vcd -direction
$end
$date
	Wed Aug 31 23:55:03 2016
$end
$version
	ModelSim Version 10.1d
$end
$timescale
	1ps
$end
$scope module synchronous_counter_vlg_vec_tst $end
$var reg 1 ! clk $end
$var wire 1 " count [3] $end
$var wire 1 # count [2] $end
$var wire 1 $ count [1] $end
$var wire 1 % count [0] $end
$var wire 1 & sampler $end
$scope module i1 $end
$var wire 1 ' gnd $end
$var wire 1 ( vcc $end
$var wire 1 ) unknown $end
$var tri1 1 * devclrn $end
$var tri1 1 + devpor $end
$var tri1 1 , devoe $end
$var wire 1 - count[0]~output_o $end
$var wire 1 . count[1]~output_o $end
$var wire 1 / count[2]~output_o $end
$var wire 1 0 count[3]~output_o $end
$var wire 1 1 clk~input_o $end
$var wire 1 2 clk~inputclkctrl_outclk $end
$var wire 1 3 tff_array:1:tff1:tff|q~0_combout $end
$var wire 1 4 tff_array:1:tff1:tff|q~q $end
$var wire 1 5 tff_array:2:tffx:tff|q~0_combout $end
$var wire 1 6 tff_array:2:tffx:tff|q~q $end
$var wire 1 7 tff_array:4:tffN:tff|q~0_combout $end
$var wire 1 8 tff_array:4:tffN:tff|q~q $end
$var wire 1 9 tff_array:3:tffx:tff|q~0_combout $end
$var wire 1 : tff_array:3:tffx:tff|q~q $end
$upscope $end
$upscope $end
$enddefinitions $end
#0
$dumpvars
0!
x%
x$
x#
x"
x&
0'
1(
x)
1*
1+
1,
x-
x.
x/
x0
01
x2
13
04
x5
06
x7
08
x9
0:
$end
#145
02
#437
09
#439
07
#452
05
#2613
0-
0%
#2617
00
0"
#2625
0/
0#
#2635
0.
0$
#20000
1!
0&
#20775
11
#20938
12
#22636
14
#23005
03
#23021
15
#25220
10
1"
#40000
0!
1&
#40936
01
#41081
02
#60000
1!
0&
#60775
11
#60938
12
#62636
04
16
#62989
13
#65229
1/
1#
#65253
00
0"
#80000
0!
1&
#80936
01
#81081
02
#100000
1!
0&
#100775
11
#100938
12
#102636
14
#103005
03
#103011
05
#103249
19
#105220
10
1"
#120000
0!
1&
#120936
01
#121081
02
#140000
1!
0&
#140775
11
#140938
12
#142636
04
06
1:
#142989
13
#145239
1.
1$
#145253
00
0"
#145261
0/
0#
#160000
0!
1&
#160936
01
#161081
02
#180000
1!
0&
#180775
11
#180938
12
#182636
14
#183005
03
#183021
15
#185220
10
1"
#200000
0!
1&
#200936
01
#201081
02
#220000
1!
0&
#220775
11
#220938
12
#222636
04
16
#222989
13
#223002
09
#223338
19
#225229
1/
1#
#225253
00
0"
#240000
0!
1&
#240936
01
#241081
02
#260000
1!
0&
#260775
11
#260938
12
#262636
14
#263005
03
#263011
05
#263248
09
#263252
17
#265220
10
1"
#280000
0!
1&
#280936
01
#281081
02
#300000
1!
0&
#300775
11
#300938
12
#302636
04
06
18
0:
#302989
13
#305215
1-
1%
#305253
00
0"
#305261
0/
0#
#305271
0.
0$
#320000
0!
1&
#320936
01
#321081
02
#340000
1!
0&
#340775
11
#340938
12
#342636
14
#343005
03
#343021
15
#345220
10
1"
#360000
0!
1&
#360936
01
#361081
02
#380000
1!
0&
#380775
11
#380938
12
#382636
04
16
#382989
13
#385229
1/
1#
#385253
00
0"
#400000
0!
1&
#400936
01
#401081
02
#420000
1!
0&
#420775
11
#420938
12
#422636
14
#423005
03
#423011
05
#423249
19
#425220
10
1"
#440000
0!
1&
#440936
01
#441081
02
#460000
1!
0&
#460775
11
#460938
12
#462636
04
06
1:
#462989
13
#465239
1.
1$
#465253
00
0"
#465261
0/
0#
#480000
0!
1&
#480936
01
#481081
02
#500000
1!
0&
#500775
11
#500938
12
#502636
14
#503005
03
#503021
15
#505220
10
1"
#520000
0!
1&
#520936
01
#521081
02
#540000
1!
0&
#540775
11
#540938
12
#542636
04
16
#542989
13
#543002
09
#543003
07
#543338
19
#543341
17
#545229
1/
1#
#545253
00
0"
#560000
0!
1&
#560936
01
#561081
02
#580000
1!
0&
#580775
11
#580938
12
#582636
14
#583005
03
#583011
05
#583248
09
#583251
07
#585220
10
1"
#600000
0!
1&
#600936
01
#601081
02
#620000
1!
0&
#620775
11
#620938
12
#622636
04
06
08
0:
#622989
13
#625249
0-
0%
#625253
00
0"
#625261
0/
0#
#625271
0.
0$
#640000
0!
1&
#640936
01
#641081
02
#660000
1!
0&
#660775
11
#660938
12
#662636
14
#663005
03
#663021
15
#665220
10
1"
#680000
0!
1&
#680936
01
#681081
02
#700000
1!
0&
#700775
11
#700938
12
#702636
04
16
#702989
13
#705229
1/
1#
#705253
00
0"
#720000
0!
1&
#720936
01
#721081
02
#740000
1!
0&
#740775
11
#740938
12
#742636
14
#743005
03
#743011
05
#743249
19
#745220
10
1"
#760000
0!
1&
#760936
01
#761081
02
#780000
1!
0&
#780775
11
#780938
12
#782636
04
06
1:
#782989
13
#785239
1.
1$
#785253
00
0"
#785261
0/
0#
#800000
0!
1&
#800936
01
#801081
02
#820000
1!
0&
#820775
11
#820938
12
#822636
14
#823005
03
#823021
15
#825220
10
1"
#840000
0!
1&
#840936
01
#841081
02
#860000
1!
0&
#860775
11
#860938
12
#862636
04
16
#862989
13
#863002
09
#863338
19
#865229
1/
1#
#865253
00
0"
#880000
0!
1&
#880936
01
#881081
02
#900000
1!
0&
#900775
11
#900938
12
#902636
14
#903005
03
#903011
05
#903248
09
#903252
17
#905220
10
1"
#920000
0!
1&
#920936
01
#921081
02
#940000
1!
0&
#940775
11
#940938
12
#942636
04
06
18
0:
#942989
13
#945215
1-
1%
#945253
00
0"
#945261
0/
0#
#945271
0.
0$
#960000
0!
1&
#960936
01
#961081
02
#980000
1!
0&
#980775
11
#980938
12
#982636
14
#983005
03
#983021
15
#985220
10
1"
