pseudorandom_generator/simulation/qsim/pseudorandom_generator.msim.vcd
$comment
	File created using the following command:
		vcd file pseudorandom_generator.msim.vcd -direction
$end
$date
	Wed Aug 10 01:34:21 2016
$end
$version
	ModelSim Version 10.1d
$end
$timescale
	1ps
$end
$scope module pseudorandom_generator_vlg_vec_tst $end
$var reg 1 ! clk $end
$var reg 1 " rst $end
$var wire 1 # random_number [7] $end
$var wire 1 $ random_number [6] $end
$var wire 1 % random_number [5] $end
$var wire 1 & random_number [4] $end
$var wire 1 ' random_number [3] $end
$var wire 1 ( random_number [2] $end
$var wire 1 ) random_number [1] $end
$var wire 1 * random_number [0] $end
$var wire 1 + sampler $end
$scope module i1 $end
$var wire 1 , gnd $end
$var wire 1 - vcc $end
$var wire 1 . unknown $end
$var tri1 1 / devclrn $end
$var tri1 1 0 devpor $end
$var tri1 1 1 devoe $end
$var wire 1 2 random_number[0]~output_o $end
$var wire 1 3 random_number[1]~output_o $end
$var wire 1 4 random_number[2]~output_o $end
$var wire 1 5 random_number[3]~output_o $end
$var wire 1 6 random_number[4]~output_o $end
$var wire 1 7 random_number[5]~output_o $end
$var wire 1 8 random_number[6]~output_o $end
$var wire 1 9 random_number[7]~output_o $end
$var wire 1 : clk~input_o $end
$var wire 1 ; clk~inputclkctrl_outclk $end
$var wire 1 < count~0_combout $end
$var wire 1 = rst~input_o $end
$var wire 1 > rst~inputclkctrl_outclk $end
$var wire 1 ? count~2_combout $end
$var wire 1 @ count[5]~7_combout $end
$var wire 1 A count[6]~8_combout $end
$var wire 1 B count[7]~9_combout $end
$var wire 1 C count[0]~3_combout $end
$var wire 1 D count[1]~4_combout $end
$var wire 1 E count~1_combout $end
$var wire 1 F count [7] $end
$var wire 1 G count [6] $end
$var wire 1 H count [5] $end
$var wire 1 I count [4] $end
$var wire 1 J count [3] $end
$var wire 1 K count [2] $end
$var wire 1 L count [1] $end
$var wire 1 M count [0] $end
$upscope $end
$upscope $end
$enddefinitions $end
#0
$dumpvars
0!
0"
x*
x)
x(
x'
x&
x%
x$
x#
x+
0,
1-
x.
1/
10
11
x2
x3
x4
x5
x6
x7
x8
x9
0:
x;
x<
0=
x>
x?
x@
xA
xB
xC
xD
xE
0M
0L
0K
0J
0I
0H
0G
0F
$end
#145
0>
0;
#437
1A
1B
#438
1@
#447
1D
#567
0?
#579
0<
0E
#582
1C
#2500
1!
0+
#2590
18
1$
#2597
05
0'
#2619
14
1(
#2627
16
1&
#2635
03
0)
#2778
07
0%
#2894
12
1*
#2945
09
0#
#3275
1:
#3438
1;
#5000
0!
1+
#5936
0:
#6081
0;
#7500
1!
0+
#8275
1:
#8438
1;
#10000
0!
1+
#10936
0:
#11081
0;
#12500
1!
0+
#13275
1:
#13438
1;
#15000
0!
1+
#15936
0:
#16081
0;
#17500
1!
0+
#18275
1:
#18438
1;
#20000
0!
1+
#20936
0:
#21081
0;
#22500
1!
0+
#23275
1:
#23438
1;
#25000
0!
1+
#25936
0:
#26081
0;
#27500
1!
0+
#28275
1:
#28438
1;
#30000
0!
1+
#30936
0:
#31081
0;
#32500
1!
0+
#33275
1:
#33438
1;
#35000
0!
1+
#35936
0:
#36081
0;
#37500
1!
0+
#38275
1:
#38438
1;
#40000
0!
1+
#40936
0:
#41081
0;
#42500
1!
0+
#43275
1:
#43438
1;
#45000
0!
1+
#45936
0:
#46081
0;
#47500
1!
0+
#48275
1:
#48438
1;
#50000
1"
0!
1+
#50765
1=
#50928
1>
#50936
0:
#51081
0;
#52500
1!
0+
#53275
1:
#53438
1;
#55000
0!
1+
#55136
1H
1G
1F
1M
1L
#55494
0B
#55495
0A
#55502
0D
#55633
0C
#55650
1?
#55936
0:
#56081
0;
#57500
1!
0+
#57739
13
1)
#57747
08
0$
#57895
17
1%
#58004
02
0*
#58037
19
1#
#58275
1:
#58438
1;
#60000
0!
1+
#60136
1I
0G
0F
0M
0L
#60495
0@
#60573
1B
#60583
1D
#60703
0?
#60718
1C
#60936
0:
#61081
0;
#62500
1!
0+
#62726
18
1$
#62728
06
0&
#62771
03
0)
#63030
12
1*
#63081
09
0#
#63275
1:
#63438
1;
#65000
0!
1+
#65136
0I
0H
1F
1M
1L
#65502
0D
#65573
1A
#65574
1@
#65633
0C
#65650
1?
#65936
0:
#66081
0;
#67500
1!
0+
#67739
13
1)
#67763
16
1&
#67914
07
0%
#68004
02
0*
#68037
19
1#
#68275
1:
#68438
1;
#70000
0!
1+
#70136
1I
1H
1G
0M
0L
#70494
0B
#70495
0A
0@
#70575
1E
#70583
1<
1D
#70936
0:
#71081
0;
#72500
1!
0+
#72728
06
0&
#72747
08
0$
#72771
03
0)
#72895
17
1%
#73030
12
1*
#73275
1:
#73438
1;
#75000
0!
1+
#75136
1K
0H
0G
0F
1L
1J
#75573
1B
1A
#75715
0<
#75718
1C
#75936
0:
#76081
0;
#77500
1!
0+
#77700
15
1'
#77726
18
1$
#77739
13
1)
#77773
04
0(
#77914
07
0%
#78081
09
0#
#78275
1:
#78438
1;
#80000
0!
1+
#80136
0K
1G
1F
1M
#80494
0B
#80502
0D
#80631
0E
#80633
0C
#80936
0:
#81081
0;
#82500
1!
0+
#82747
08
0$
#82755
14
1(
#83004
02
0*
#83037
19
1#
#83275
1:
#83438
1;
#85000
0!
1+
#85136
0F
0M
0L
0J
#85583
1D
#85703
0?
#85718
1C
#85936
0:
#86081
0;
#87500
1!
0+
#87733
05
0'
#87771
03
0)
#88030
12
1*
#88081
09
0#
#88275
1:
#88438
1;
#90000
0!
1+
#90136
0I
1M
1L
#90502
0D
#90505
1E
#90512
1<
#90574
1@
#90936
0:
#91081
0;
#92500
1!
0+
#92739
13
1)
#92763
16
1&
#93004
02
0*
#93275
1:
#93438
1;
#95000
0!
1+
#95136
1K
1H
0L
1J
#95495
0A
#95565
0E
#95619
1?
#95936
0:
#96081
0;
#97500
1!
0+
#97700
15
1'
#97771
03
0)
#97773
04
0(
#97895
17
1%
#98275
1:
#98438
1;
#100000
0!
1+
#100136
1I
0G
0J
#100495
0@
#100573
1B
#100936
0:
#101081
0;
#102500
1!
0+
#102726
18
1$
#102728
06
0&
#102733
05
0'
#103275
1:
#103438
1;
#105000
0!
1+
#105136
0H
1F
#105573
1A
#105632
0<
#105633
1E
0C
#105640
0?
#105936
0:
#106081
0;
#107500
1!
0+
#107914
07
0%
#108037
19
1#
#108275
1:
#108438
1;
#110000
0!
1+
#110136
0K
0I
1G
0M
1J
#110494
0B
#110574
1@
#110583
1<
1D
#110696
1?
#110936
0:
#111081
0;
#112500
1!
0+
#112700
15
1'
#112747
08
0$
#112755
14
1(
#112763
16
1&
#113030
12
1*
#113275
1:
#113438
1;
#115000
0!
1+
#115136
1K
1I
1H
0F
1L
#115495
0A
0@
#115715
0<
#115718
1C
#115936
0:
#116081
0;
#117500
1!
0+
#117728
06
0&
#117739
13
1)
#117773
04
0(
#117895
17
1%
#118081
09
0#
#118275
1:
#118438
1;
#120000
0!
1+
#120136
0K
0H
0G
1M
#120502
0D
#120512
1<
#120573
1B
1A
#120694
0?
#120936
0:
#121081
0;
#122500
1!
0+
#122726
18
1$
#122755
14
1(
#122914
07
0%
#123004
02
0*
#123275
1:
#123438
1;
#125000
0!
1+
#125136
1K
0I
1G
1F
0L
#125494
0B
#125574
1@
#125632
0<
#125633
0C
#125936
0:
#126081
0;
#127500
1!
0+
#127747
08
0$
#127763
16
1&
#127771
03
0)
#127773
04
0(
#128037
19
1#
#128275
1:
#128438
1;
#130000
0!
1+
#130136
0K
1H
0F
0M
#130495
0A
#130583
1D
#130715
0E
#130718
1C
#130936
0:
#131081
0;
#132500
1!
0+
#132755
14
1(
#132895
17
1%
#133030
12
1*
#133081
09
0#
#133275
1:
#133438
1;
#135000
0!
1+
#135136
0G
1M
1L
0J
#135502
0D
#135505
1E
#135512
1<
#135573
1B
#135936
0:
#136081
0;
#137500
1!
0+
#137726
18
1$
#137733
05
0'
#137739
13
1)
#138004
02
0*
#138275
1:
#138438
1;
#140000
0!
1+
#140136
1K
1F
0L
1J
#140632
0<
#140633
0C
#140936
0:
#141081
0;
#142500
1!
0+
#142700
15
1'
#142771
03
0)
#142773
04
0(
#143037
19
1#
#143275
1:
#143438
1;
#145000
0!
1+
#145136
0K
0M
#145583
1<
1D
#145696
1?
#145936
0:
#146081
0;
#147500
1!
0+
#147755
14
1(
#148030
12
1*
#148275
1:
#148438
1;
#150000
0!
1+
#150136
1K
1I
1L
#150495
0E
0@
#150617
0?
#150936
0:
#151081
0;
#152500
1!
0+
#152728
06
0&
#152739
13
1)
#152773
04
0(
#153275
1:
#153438
1;
#155000
0!
1+
#155136
0I
0H
0J
#155573
1A
#155574
1@
#155936
0:
#156081
0;
#157500
1!
0+
#157733
05
0'
#157763
16
1&
#157914
07
0%
#158275
1:
#158438
1;
#160000
0!
1+
#160136
1H
1G
#160494
0B
#160495
0A
#160936
0:
#161081
0;
#162500
1!
0+
#162747
08
0$
#162895
17
1%
#163275
1:
#163438
1;
#165000
0!
1+
#165136
0G
0F
#165573
1B
#165713
1?
#165715
0<
#165717
1E
#165718
1C
#165936
0:
#166081
0;
#167500
1!
0+
#167726
18
1$
#168081
09
0#
#168275
1:
#168438
1;
#170000
0!
1+
#170136
0K
1I
1F
1M
1J
#170495
0@
#170502
0D
#170631
0E
#170633
0C
#170936
0:
#171081
0;
#172500
1!
0+
#172700
15
1'
#172728
06
0&
#172755
14
1(
#173004
02
0*
#173037
19
1#
#173275
1:
#173438
1;
#175000
0!
1+
#175136
0H
0M
0L
0J
#175573
1A
#175575
1E
#175583
1<
1D
#175936
0:
#176081
0;
#177500
1!
0+
#177733
05
0'
#177771
03
0)
#177914
07
0%
#178030
12
1*
#178275
1:
#178438
1;
#180000
0!
1+
#180136
1K
1G
1L
1J
#180494
0B
#180495
0E
#180617
0?
#180936
0:
#181081
0;
#182500
1!
0+
#182700
15
1'
#182739
13
1)
#182747
08
0$
#182773
04
0(
#183275
1:
#183438
1;
#185000
0!
1+
#185136
0I
0F
0J
#185574
1@
#185713
1?
#185715
0<
#185717
1E
#185718
1C
#185936
0:
#186081
0;
#187500
1!
0+
#187733
05
0'
#187763
16
1&
#188081
09
0#
#188275
1:
#188438
1;
#190000
0!
1+
#190136
0K
1I
1H
1M
1J
#190495
0A
0@
#190502
0D
#190512
1<
#190694
0?
#190936
0:
#191081
0;
#192500
1!
0+
#192700
15
1'
#192728
06
0&
#192755
14
1(
#192895
17
1%
#193004
02
0*
#193275
1:
#193438
1;
#195000
0!
1+
#195136
1K
0I
0H
0G
0L
#195565
0E
#195573
1B
1A
#195574
1@
#195619
1?
#195936
0:
#196081
0;
#197500
1!
0+
#197726
18
1$
#197763
16
1&
#197771
03
0)
#197773
04
0(
#197914
07
0%
#198275
1:
#198438
1;
#200000
0!
1+
#200136
1I
1H
1G
1F
0J
#200494
0B
#200495
0A
0@
#200632
0<
#200633
1E
0C
#200640
0?
#200936
0:
#201081
0;
#202500
1!
0+
#202728
06
0&
#202733
05
0'
#202747
08
0$
#202895
17
1%
#203037
19
1#
#203275
1:
#203438
1;
#205000
0!
1+
#205136
0K
0I
0H
0G
0F
0M
1J
#205573
1B
1A
#205574
1@
#205583
1D
#205715
0E
#205718
1C
#205936
0:
#206081
0;
#207500
1!
0+
#207700
15
1'
#207726
18
1$
#207755
14
1(
#207763
16
1&
#207914
07
0%
#208030
12
1*
#208081
09
0#
#208275
1:
#208438
1;
#210000
0!
1+
#210136
1H
1G
1F
1M
1L
0J
#210494
0B
#210495
0A
#210502
0D
#210633
0C
#210650
1?
#210936
0:
#211081
0;
#212500
1!
0+
#212733
05
0'
#212739
13
1)
#212747
08
0$
#212895
17
1%
#213004
02
0*
#213037
19
1#
#213275
1:
#213438
1;
#215000
0!
1+
#215136
1I
0G
0F
0M
0L
#215495
0@
#215573
1B
#215583
1D
#215703
0?
#215718
1C
#215936
0:
#216081
0;
#217500
1!
0+
#217726
18
1$
#217728
06
0&
#217771
03
0)
#218030
12
1*
#218081
09
0#
#218275
1:
#218438
1;
#220000
0!
1+
#220136
0I
0H
1F
1M
1L
#220502
0D
#220573
1A
#220574
1@
#220633
0C
#220650
1?
#220936
0:
#221081
0;
#222500
1!
0+
#222739
13
1)
#222763
16
1&
#222914
07
0%
#223004
02
0*
#223037
19
1#
#223275
1:
#223438
1;
#225000
0!
1+
#225136
1I
1H
1G
0M
0L
#225494
0B
#225495
0A
0@
#225575
1E
#225583
1<
1D
#225936
0:
#226081
0;
#227500
1!
0+
#227728
06
0&
#227747
08
0$
#227771
03
0)
#227895
17
1%
#228030
12
1*
#228275
1:
#228438
1;
#230000
0!
1+
#230136
1K
0H
0G
0F
1L
1J
#230573
1B
1A
#230715
0<
#230718
1C
#230936
0:
#231081
0;
#232500
1!
0+
#232700
15
1'
#232726
18
1$
#232739
13
1)
#232773
04
0(
#232914
07
0%
#233081
09
0#
#233275
1:
#233438
1;
#235000
0!
1+
#235136
0K
1G
1F
1M
#235494
0B
#235502
0D
#235631
0E
#235633
0C
#235936
0:
#236081
0;
#237500
1!
0+
#237747
08
0$
#237755
14
1(
#238004
02
0*
#238037
19
1#
#238275
1:
#238438
1;
#240000
0!
1+
#240136
0F
0M
0L
0J
#240583
1D
#240703
0?
#240718
1C
#240936
0:
#241081
0;
#242500
1!
0+
#242733
05
0'
#242771
03
0)
#243030
12
1*
#243081
09
0#
#243275
1:
#243438
1;
#245000
0!
1+
#245136
0I
1M
1L
#245502
0D
#245505
1E
#245512
1<
#245574
1@
#245936
0:
#246081
0;
#247500
1!
0+
#247739
13
1)
#247763
16
1&
#248004
02
0*
#248275
1:
#248438
1;
#250000
0!
1+
#250136
1K
1H
0L
1J
#250495
0A
#250565
0E
#250619
1?
#250936
0:
#251081
0;
#252500
1!
0+
#252700
15
1'
#252771
03
0)
#252773
04
0(
#252895
17
1%
#253275
1:
#253438
1;
#255000
0!
1+
#255136
1I
0G
0J
#255495
0@
#255573
1B
#255936
0:
#256081
0;
#257500
1!
0+
#257726
18
1$
#257728
06
0&
#257733
05
0'
#258275
1:
#258438
1;
#260000
0!
1+
#260136
0H
1F
#260573
1A
#260632
0<
#260633
1E
0C
#260640
0?
#260936
0:
#261081
0;
#262500
1!
0+
#262914
07
0%
#263037
19
1#
#263275
1:
#263438
1;
#265000
0!
1+
#265136
0K
0I
1G
0M
1J
#265494
0B
#265574
1@
#265583
1<
1D
#265696
1?
#265936
0:
#266081
0;
#267500
1!
0+
#267700
15
1'
#267747
08
0$
#267755
14
1(
#267763
16
1&
#268030
12
1*
#268275
1:
#268438
1;
#270000
0!
1+
#270136
1K
1I
1H
0F
1L
#270495
0A
0@
#270715
0<
#270718
1C
#270936
0:
#271081
0;
#272500
1!
0+
#272728
06
0&
#272739
13
1)
#272773
04
0(
#272895
17
1%
#273081
09
0#
#273275
1:
#273438
1;
#275000
0!
1+
#275136
0K
0H
0G
1M
#275502
0D
#275512
1<
#275573
1B
1A
#275694
0?
#275936
0:
#276081
0;
#277500
1!
0+
#277726
18
1$
#277755
14
1(
#277914
07
0%
#278004
02
0*
#278275
1:
#278438
1;
#280000
0!
1+
#280136
1K
0I
1G
1F
0L
#280494
0B
#280574
1@
#280632
0<
#280633
0C
#280936
0:
#281081
0;
#282500
1!
0+
#282747
08
0$
#282763
16
1&
#282771
03
0)
#282773
04
0(
#283037
19
1#
#283275
1:
#283438
1;
#285000
0!
1+
#285136
0K
1H
0F
0M
#285495
0A
#285583
1D
#285715
0E
#285718
1C
#285936
0:
#286081
0;
#287500
1!
0+
#287755
14
1(
#287895
17
1%
#288030
12
1*
#288081
09
0#
#288275
1:
#288438
1;
#290000
0!
1+
#290136
0G
1M
1L
0J
#290502
0D
#290505
1E
#290512
1<
#290573
1B
#290936
0:
#291081
0;
#292500
1!
0+
#292726
18
1$
#292733
05
0'
#292739
13
1)
#293004
02
0*
#293275
1:
#293438
1;
#295000
0!
1+
#295136
1K
1F
0L
1J
#295632
0<
#295633
0C
#295936
0:
#296081
0;
#297500
1!
0+
#297700
15
1'
#297771
03
0)
#297773
04
0(
#298037
19
1#
#298275
1:
#298438
1;
#300000
0!
1+
#300136
0K
0M
#300583
1<
1D
#300696
1?
#300936
0:
#301081
0;
#302500
1!
0+
#302755
14
1(
#303030
12
1*
#303275
1:
#303438
1;
#305000
0!
1+
#305136
1K
1I
1L
#305495
0E
0@
#305617
0?
#305936
0:
#306081
0;
#307500
1!
0+
#307728
06
0&
#307739
13
1)
#307773
04
0(
#308275
1:
#308438
1;
#310000
0!
1+
#310136
0I
0H
0J
#310573
1A
#310574
1@
#310936
0:
#311081
0;
#312500
1!
0+
#312733
05
0'
#312763
16
1&
#312914
07
0%
#313275
1:
#313438
1;
#315000
0!
1+
#315136
1H
1G
#315494
0B
#315495
0A
#315936
0:
#316081
0;
#317500
1!
0+
#317747
08
0$
#317895
17
1%
#318275
1:
#318438
1;
#320000
0!
1+
#320136
0G
0F
#320573
1B
#320713
1?
#320715
0<
#320717
1E
#320718
1C
#320936
0:
#321081
0;
#322500
1!
0+
#322726
18
1$
#323081
09
0#
#323275
1:
#323438
1;
#325000
0!
1+
#325136
0K
1I
1F
1M
1J
#325495
0@
#325502
0D
#325631
0E
#325633
0C
#325936
0:
#326081
0;
#327500
1!
0+
#327700
15
1'
#327728
06
0&
#327755
14
1(
#328004
02
0*
#328037
19
1#
#328275
1:
#328438
1;
#330000
0!
1+
#330136
0H
0M
0L
0J
#330573
1A
#330575
1E
#330583
1<
1D
#330936
0:
#331081
0;
#332500
1!
0+
#332733
05
0'
#332771
03
0)
#332914
07
0%
#333030
12
1*
#333275
1:
#333438
1;
#335000
0!
1+
#335136
1K
1G
1L
1J
#335494
0B
#335495
0E
#335617
0?
#335936
0:
#336081
0;
#337500
1!
0+
#337700
15
1'
#337739
13
1)
#337747
08
0$
#337773
04
0(
#338275
1:
#338438
1;
#340000
0!
1+
#340136
0I
0F
0J
#340574
1@
#340713
1?
#340715
0<
#340717
1E
#340718
1C
#340936
0:
#341081
0;
#342500
1!
0+
#342733
05
0'
#342763
16
1&
#343081
09
0#
#343275
1:
#343438
1;
#345000
0!
1+
#345136
0K
1I
1H
1M
1J
#345495
0A
0@
#345502
0D
#345512
1<
#345694
0?
#345936
0:
#346081
0;
#347500
1!
0+
#347700
15
1'
#347728
06
0&
#347755
14
1(
#347895
17
1%
#348004
02
0*
#348275
1:
#348438
1;
#350000
0!
1+
#350136
1K
0I
0H
0G
0L
#350565
0E
#350573
1B
1A
#350574
1@
#350619
1?
#350936
0:
#351081
0;
#352500
1!
0+
#352726
18
1$
#352763
16
1&
#352771
03
0)
#352773
04
0(
#352914
07
0%
#353275
1:
#353438
1;
#355000
0!
1+
#355136
1I
1H
1G
1F
0J
#355494
0B
#355495
0A
0@
#355632
0<
#355633
1E
0C
#355640
0?
#355936
0:
#356081
0;
#357500
1!
0+
#357728
06
0&
#357733
05
0'
#357747
08
0$
#357895
17
1%
#358037
19
1#
#358275
1:
#358438
1;
#360000
0!
1+
#360136
0K
0I
0H
0G
0F
0M
1J
#360573
1B
1A
#360574
1@
#360583
1D
#360715
0E
#360718
1C
#360936
0:
#361081
0;
#362500
1!
0+
#362700
15
1'
#362726
18
1$
#362755
14
1(
#362763
16
1&
#362914
07
0%
#363030
12
1*
#363081
09
0#
#363275
1:
#363438
1;
#365000
0!
1+
#365136
1H
1G
1F
1M
1L
0J
#365494
0B
#365495
0A
#365502
0D
#365633
0C
#365650
1?
#365936
0:
#366081
0;
#367500
1!
0+
#367733
05
0'
#367739
13
1)
#367747
08
0$
#367895
17
1%
#368004
02
0*
#368037
19
1#
#368275
1:
#368438
1;
#370000
0!
1+
#370136
1I
0G
0F
0M
0L
#370495
0@
#370573
1B
#370583
1D
#370703
0?
#370718
1C
#370936
0:
#371081
0;
#372500
1!
0+
#372726
18
1$
#372728
06
0&
#372771
03
0)
#373030
12
1*
#373081
09
0#
#373275
1:
#373438
1;
#375000
0!
1+
#375136
0I
0H
1F
1M
1L
#375502
0D
#375573
1A
#375574
1@
#375633
0C
#375650
1?
#375936
0:
#376081
0;
#377500
1!
0+
#377739
13
1)
#377763
16
1&
#377914
07
0%
#378004
02
0*
#378037
19
1#
#378275
1:
#378438
1;
#380000
0!
1+
#380136
1I
1H
1G
0M
0L
#380494
0B
#380495
0A
0@
#380575
1E
#380583
1<
1D
#380936
0:
#381081
0;
#382500
1!
0+
#382728
06
0&
#382747
08
0$
#382771
03
0)
#382895
17
1%
#383030
12
1*
#383275
1:
#383438
1;
#385000
0!
1+
#385136
1K
0H
0G
0F
1L
1J
#385573
1B
1A
#385715
0<
#385718
1C
#385936
0:
#386081
0;
#387500
1!
0+
#387700
15
1'
#387726
18
1$
#387739
13
1)
#387773
04
0(
#387914
07
0%
#388081
09
0#
#388275
1:
#388438
1;
#390000
0!
1+
#390136
0K
1G
1F
1M
#390494
0B
#390502
0D
#390631
0E
#390633
0C
#390936
0:
#391081
0;
#392500
1!
0+
#392747
08
0$
#392755
14
1(
#393004
02
0*
#393037
19
1#
#393275
1:
#393438
1;
#395000
0!
1+
#395136
0F
0M
0L
0J
#395583
1D
#395703
0?
#395718
1C
#395936
0:
#396081
0;
#397500
1!
0+
#397733
05
0'
#397771
03
0)
#398030
12
1*
#398081
09
0#
#398275
1:
#398438
1;
#400000
0!
1+
#400136
0I
1M
1L
#400502
0D
#400505
1E
#400512
1<
#400574
1@
#400936
0:
#401081
0;
#402500
1!
0+
#402739
13
1)
#402763
16
1&
#403004
02
0*
#403275
1:
#403438
1;
#405000
0!
1+
#405136
1K
1H
0L
1J
#405495
0A
#405565
0E
#405619
1?
#405936
0:
#406081
0;
#407500
1!
0+
#407700
15
1'
#407771
03
0)
#407773
04
0(
#407895
17
1%
#408275
1:
#408438
1;
#410000
0!
1+
#410136
1I
0G
0J
#410495
0@
#410573
1B
#410936
0:
#411081
0;
#412500
1!
0+
#412726
18
1$
#412728
06
0&
#412733
05
0'
#413275
1:
#413438
1;
#415000
0!
1+
#415136
0H
1F
#415573
1A
#415632
0<
#415633
1E
0C
#415640
0?
#415936
0:
#416081
0;
#417500
1!
0+
#417914
07
0%
#418037
19
1#
#418275
1:
#418438
1;
#420000
0!
1+
#420136
0K
0I
1G
0M
1J
#420494
0B
#420574
1@
#420583
1<
1D
#420696
1?
#420936
0:
#421081
0;
#422500
1!
0+
#422700
15
1'
#422747
08
0$
#422755
14
1(
#422763
16
1&
#423030
12
1*
#423275
1:
#423438
1;
#425000
0!
1+
#425136
1K
1I
1H
0F
1L
#425495
0A
0@
#425715
0<
#425718
1C
#425936
0:
#426081
0;
#427500
1!
0+
#427728
06
0&
#427739
13
1)
#427773
04
0(
#427895
17
1%
#428081
09
0#
#428275
1:
#428438
1;
#430000
0!
1+
#430136
0K
0H
0G
1M
#430502
0D
#430512
1<
#430573
1B
1A
#430694
0?
#430936
0:
#431081
0;
#432500
1!
0+
#432726
18
1$
#432755
14
1(
#432914
07
0%
#433004
02
0*
#433275
1:
#433438
1;
#435000
0!
1+
#435136
1K
0I
1G
1F
0L
#435494
0B
#435574
1@
#435632
0<
#435633
0C
#435936
0:
#436081
0;
#437500
1!
0+
#437747
08
0$
#437763
16
1&
#437771
03
0)
#437773
04
0(
#438037
19
1#
#438275
1:
#438438
1;
#440000
0!
1+
#440136
0K
1H
0F
0M
#440495
0A
#440583
1D
#440715
0E
#440718
1C
#440936
0:
#441081
0;
#442500
1!
0+
#442755
14
1(
#442895
17
1%
#443030
12
1*
#443081
09
0#
#443275
1:
#443438
1;
#445000
0!
1+
#445136
0G
1M
1L
0J
#445502
0D
#445505
1E
#445512
1<
#445573
1B
#445936
0:
#446081
0;
#447500
1!
0+
#447726
18
1$
#447733
05
0'
#447739
13
1)
#448004
02
0*
#448275
1:
#448438
1;
#450000
0!
1+
#450136
1K
1F
0L
1J
#450632
0<
#450633
0C
#450936
0:
#451081
0;
#452500
1!
0+
#452700
15
1'
#452771
03
0)
#452773
04
0(
#453037
19
1#
#453275
1:
#453438
1;
#455000
0!
1+
#455136
0K
0M
#455583
1<
1D
#455696
1?
#455936
0:
#456081
0;
#457500
1!
0+
#457755
14
1(
#458030
12
1*
#458275
1:
#458438
1;
#460000
0!
1+
#460136
1K
1I
1L
#460495
0E
0@
#460617
0?
#460936
0:
#461081
0;
#462500
1!
0+
#462728
06
0&
#462739
13
1)
#462773
04
0(
#463275
1:
#463438
1;
#465000
0!
1+
#465136
0I
0H
0J
#465573
1A
#465574
1@
#465936
0:
#466081
0;
#467500
1!
0+
#467733
05
0'
#467763
16
1&
#467914
07
0%
#468275
1:
#468438
1;
#470000
0!
1+
#470136
1H
1G
#470494
0B
#470495
0A
#470936
0:
#471081
0;
#472500
1!
0+
#472747
08
0$
#472895
17
1%
#473275
1:
#473438
1;
#475000
0!
1+
#475136
0G
0F
#475573
1B
#475713
1?
#475715
0<
#475717
1E
#475718
1C
#475936
0:
#476081
0;
#477500
1!
0+
#477726
18
1$
#478081
09
0#
#478275
1:
#478438
1;
#480000
0!
1+
#480136
0K
1I
1F
1M
1J
#480495
0@
#480502
0D
#480631
0E
#480633
0C
#480936
0:
#481081
0;
#482500
1!
0+
#482700
15
1'
#482728
06
0&
#482755
14
1(
#483004
02
0*
#483037
19
1#
#483275
1:
#483438
1;
#485000
0!
1+
#485136
0H
0M
0L
0J
#485573
1A
#485575
1E
#485583
1<
1D
#485936
0:
#486081
0;
#487500
1!
0+
#487733
05
0'
#487771
03
0)
#487914
07
0%
#488030
12
1*
#488275
1:
#488438
1;
#490000
0!
1+
#490136
1K
1G
1L
1J
#490494
0B
#490495
0E
#490617
0?
#490936
0:
#491081
0;
#492500
1!
0+
#492700
15
1'
#492739
13
1)
#492747
08
0$
#492773
04
0(
#493275
1:
#493438
1;
#495000
0!
1+
#495136
0I
0F
0J
#495574
1@
#495713
1?
#495715
0<
#495717
1E
#495718
1C
#495936
0:
#496081
0;
#497500
1!
0+
#497733
05
0'
#497763
16
1&
#498081
09
0#
#498275
1:
#498438
1;
#500000
0!
1+
#500136
0K
1I
1H
1M
1J
#500495
0A
0@
#500502
0D
#500512
1<
#500694
0?
#500936
0:
#501081
0;
#502500
1!
0+
#502700
15
1'
#502728
06
0&
#502755
14
1(
#502895
17
1%
#503004
02
0*
#503275
1:
#503438
1;
#505000
0!
1+
#505136
1K
0I
0H
0G
0L
#505565
0E
#505573
1B
1A
#505574
1@
#505619
1?
#505936
0:
#506081
0;
#507500
1!
0+
#507726
18
1$
#507763
16
1&
#507771
03
0)
#507773
04
0(
#507914
07
0%
#508275
1:
#508438
1;
#510000
0!
1+
#510136
1I
1H
1G
1F
0J
#510494
0B
#510495
0A
0@
#510632
0<
#510633
1E
0C
#510640
0?
#510936
0:
#511081
0;
#512500
1!
0+
#512728
06
0&
#512733
05
0'
#512747
08
0$
#512895
17
1%
#513037
19
1#
#513275
1:
#513438
1;
#515000
0!
1+
#515136
0K
0I
0H
0G
0F
0M
1J
#515573
1B
1A
#515574
1@
#515583
1D
#515715
0E
#515718
1C
#515936
0:
#516081
0;
#517500
1!
0+
#517700
15
1'
#517726
18
1$
#517755
14
1(
#517763
16
1&
#517914
07
0%
#518030
12
1*
#518081
09
0#
#518275
1:
#518438
1;
#520000
0!
1+
#520136
1H
1G
1F
1M
1L
0J
#520494
0B
#520495
0A
#520502
0D
#520633
0C
#520650
1?
#520936
0:
#521081
0;
#522500
1!
0+
#522733
05
0'
#522739
13
1)
#522747
08
0$
#522895
17
1%
#523004
02
0*
#523037
19
1#
#523275
1:
#523438
1;
#525000
0!
1+
#525136
1I
0G
0F
0M
0L
#525495
0@
#525573
1B
#525583
1D
#525703
0?
#525718
1C
#525936
0:
#526081
0;
#527500
1!
0+
#527726
18
1$
#527728
06
0&
#527771
03
0)
#528030
12
1*
#528081
09
0#
#528275
1:
#528438
1;
#530000
0!
1+
#530136
0I
0H
1F
1M
1L
#530502
0D
#530573
1A
#530574
1@
#530633
0C
#530650
1?
#530936
0:
#531081
0;
#532500
1!
0+
#532739
13
1)
#532763
16
1&
#532914
07
0%
#533004
02
0*
#533037
19
1#
#533275
1:
#533438
1;
#535000
0!
1+
#535136
1I
1H
1G
0M
0L
#535494
0B
#535495
0A
0@
#535575
1E
#535583
1<
1D
#535936
0:
#536081
0;
#537500
1!
0+
#537728
06
0&
#537747
08
0$
#537771
03
0)
#537895
17
1%
#538030
12
1*
#538275
1:
#538438
1;
#540000
0!
1+
#540136
1K
0H
0G
0F
1L
1J
#540573
1B
1A
#540715
0<
#540718
1C
#540936
0:
#541081
0;
#542500
1!
0+
#542700
15
1'
#542726
18
1$
#542739
13
1)
#542773
04
0(
#542914
07
0%
#543081
09
0#
#543275
1:
#543438
1;
#545000
0!
1+
#545136
0K
1G
1F
1M
#545494
0B
#545502
0D
#545631
0E
#545633
0C
#545936
0:
#546081
0;
#547500
1!
0+
#547747
08
0$
#547755
14
1(
#548004
02
0*
#548037
19
1#
#548275
1:
#548438
1;
#550000
0!
1+
#550136
0F
0M
0L
0J
#550583
1D
#550703
0?
#550718
1C
#550936
0:
#551081
0;
#552500
1!
0+
#552733
05
0'
#552771
03
0)
#553030
12
1*
#553081
09
0#
#553275
1:
#553438
1;
#555000
0!
1+
#555136
0I
1M
1L
#555502
0D
#555505
1E
#555512
1<
#555574
1@
#555936
0:
#556081
0;
#557500
1!
0+
#557739
13
1)
#557763
16
1&
#558004
02
0*
#558275
1:
#558438
1;
#560000
0!
1+
#560136
1K
1H
0L
1J
#560495
0A
#560565
0E
#560619
1?
#560936
0:
#561081
0;
#562500
1!
0+
#562700
15
1'
#562771
03
0)
#562773
04
0(
#562895
17
1%
#563275
1:
#563438
1;
#565000
0!
1+
#565136
1I
0G
0J
#565495
0@
#565573
1B
